ISO-10303-21;
HEADER;
FILE_DESCRIPTION(('FreeCAD Model'),'2;1');
FILE_NAME('Open CASCADE Shape Model','2021-11-16T22:49:51',(
    'kicad StepUp'),('ksu MCAD'),'Open CASCADE STEP processor 7.5',
  'FreeCAD','Unknown');
FILE_SCHEMA(('AUTOMOTIVE_DESIGN { 1 0 10303 214 1 1 1 1 }'));
ENDSEC;
DATA;
#1 = APPLICATION_PROTOCOL_DEFINITION('international standard',
  'automotive_design',2000,#2);
#2 = APPLICATION_CONTEXT(
  'core data for automotive mechanical design processes');
#3 = SHAPE_DEFINITION_REPRESENTATION(#4,#10);
#4 = PRODUCT_DEFINITION_SHAPE('','',#5);
#5 = PRODUCT_DEFINITION('design','',#6,#9);
#6 = PRODUCT_DEFINITION_FORMATION('','',#7);
#7 = PRODUCT('LED_Osram_LRTB_R48G','LED_Osram_LRTB_R48G','',(#8));
#8 = PRODUCT_CONTEXT('',#2,'mechanical');
#9 = PRODUCT_DEFINITION_CONTEXT('part definition',#2,'design');
#10 = SHAPE_REPRESENTATION('',(#11,#15,#1299),#1591);
#11 = AXIS2_PLACEMENT_3D('',#12,#13,#14);
#12 = CARTESIAN_POINT('',(0.,0.,0.));
#13 = DIRECTION('',(0.,0.,1.));
#14 = DIRECTION('',(1.,0.,-0.));
#15 = MANIFOLD_SOLID_BREP('',#16);
#16 = CLOSED_SHELL('',(#17,#57,#88,#119,#308,#427,#439,#470,#495,#519,
    #543,#560,#591,#616,#640,#664,#681,#712,#737,#761,#785,#802,#833,
    #858,#882,#906,#923,#954,#978,#1002,#1019,#1050,#1074,#1098,#1115,
    #1146,#1170,#1194,#1211,#1224,#1237,#1250,#1263,#1275,#1287));
#17 = ADVANCED_FACE('',(#18),#52,.T.);
#18 = FACE_BOUND('',#19,.T.);
#19 = EDGE_LOOP('',(#20,#30,#38,#46));
#20 = ORIENTED_EDGE('',*,*,#21,.T.);
#21 = EDGE_CURVE('',#22,#24,#26,.T.);
#22 = VERTEX_POINT('',#23);
#23 = CARTESIAN_POINT('',(-0.5,0.5,5.E-03));
#24 = VERTEX_POINT('',#25);
#25 = CARTESIAN_POINT('',(-0.5,0.5,0.305));
#26 = LINE('',#27,#28);
#27 = CARTESIAN_POINT('',(-0.5,0.5,5.E-03));
#28 = VECTOR('',#29,1.);
#29 = DIRECTION('',(0.,0.,1.));
#30 = ORIENTED_EDGE('',*,*,#31,.T.);
#31 = EDGE_CURVE('',#24,#32,#34,.T.);
#32 = VERTEX_POINT('',#33);
#33 = CARTESIAN_POINT('',(0.5,0.5,0.305));
#34 = LINE('',#35,#36);
#35 = CARTESIAN_POINT('',(-0.5,0.5,0.305));
#36 = VECTOR('',#37,1.);
#37 = DIRECTION('',(1.,0.,0.));
#38 = ORIENTED_EDGE('',*,*,#39,.F.);
#39 = EDGE_CURVE('',#40,#32,#42,.T.);
#40 = VERTEX_POINT('',#41);
#41 = CARTESIAN_POINT('',(0.5,0.5,5.E-03));
#42 = LINE('',#43,#44);
#43 = CARTESIAN_POINT('',(0.5,0.5,5.E-03));
#44 = VECTOR('',#45,1.);
#45 = DIRECTION('',(0.,0.,1.));
#46 = ORIENTED_EDGE('',*,*,#47,.F.);
#47 = EDGE_CURVE('',#22,#40,#48,.T.);
#48 = LINE('',#49,#50);
#49 = CARTESIAN_POINT('',(-0.5,0.5,5.E-03));
#50 = VECTOR('',#51,1.);
#51 = DIRECTION('',(1.,0.,0.));
#52 = PLANE('',#53);
#53 = AXIS2_PLACEMENT_3D('',#54,#55,#56);
#54 = CARTESIAN_POINT('',(-0.5,0.5,5.E-03));
#55 = DIRECTION('',(0.,1.,0.));
#56 = DIRECTION('',(1.,0.,0.));
#57 = ADVANCED_FACE('',(#58),#83,.T.);
#58 = FACE_BOUND('',#59,.T.);
#59 = EDGE_LOOP('',(#60,#70,#76,#77));
#60 = ORIENTED_EDGE('',*,*,#61,.T.);
#61 = EDGE_CURVE('',#62,#64,#66,.T.);
#62 = VERTEX_POINT('',#63);
#63 = CARTESIAN_POINT('',(-0.5,-0.5,5.E-03));
#64 = VERTEX_POINT('',#65);
#65 = CARTESIAN_POINT('',(-0.5,-0.5,0.305));
#66 = LINE('',#67,#68);
#67 = CARTESIAN_POINT('',(-0.5,-0.5,5.E-03));
#68 = VECTOR('',#69,1.);
#69 = DIRECTION('',(0.,0.,1.));
#70 = ORIENTED_EDGE('',*,*,#71,.T.);
#71 = EDGE_CURVE('',#64,#24,#72,.T.);
#72 = LINE('',#73,#74);
#73 = CARTESIAN_POINT('',(-0.5,-0.5,0.305));
#74 = VECTOR('',#75,1.);
#75 = DIRECTION('',(0.,1.,0.));
#76 = ORIENTED_EDGE('',*,*,#21,.F.);
#77 = ORIENTED_EDGE('',*,*,#78,.F.);
#78 = EDGE_CURVE('',#62,#22,#79,.T.);
#79 = LINE('',#80,#81);
#80 = CARTESIAN_POINT('',(-0.5,-0.5,5.E-03));
#81 = VECTOR('',#82,1.);
#82 = DIRECTION('',(0.,1.,0.));
#83 = PLANE('',#84);
#84 = AXIS2_PLACEMENT_3D('',#85,#86,#87);
#85 = CARTESIAN_POINT('',(-0.5,-0.5,5.E-03));
#86 = DIRECTION('',(-1.,0.,0.));
#87 = DIRECTION('',(0.,1.,0.));
#88 = ADVANCED_FACE('',(#89),#114,.T.);
#89 = FACE_BOUND('',#90,.T.);
#90 = EDGE_LOOP('',(#91,#92,#100,#108));
#91 = ORIENTED_EDGE('',*,*,#39,.T.);
#92 = ORIENTED_EDGE('',*,*,#93,.T.);
#93 = EDGE_CURVE('',#32,#94,#96,.T.);
#94 = VERTEX_POINT('',#95);
#95 = CARTESIAN_POINT('',(0.5,-0.5,0.305));
#96 = LINE('',#97,#98);
#97 = CARTESIAN_POINT('',(0.5,0.5,0.305));
#98 = VECTOR('',#99,1.);
#99 = DIRECTION('',(0.,-1.,0.));
#100 = ORIENTED_EDGE('',*,*,#101,.F.);
#101 = EDGE_CURVE('',#102,#94,#104,.T.);
#102 = VERTEX_POINT('',#103);
#103 = CARTESIAN_POINT('',(0.5,-0.5,5.E-03));
#104 = LINE('',#105,#106);
#105 = CARTESIAN_POINT('',(0.5,-0.5,5.E-03));
#106 = VECTOR('',#107,1.);
#107 = DIRECTION('',(0.,0.,1.));
#108 = ORIENTED_EDGE('',*,*,#109,.F.);
#109 = EDGE_CURVE('',#40,#102,#110,.T.);
#110 = LINE('',#111,#112);
#111 = CARTESIAN_POINT('',(0.5,0.5,5.E-03));
#112 = VECTOR('',#113,1.);
#113 = DIRECTION('',(0.,-1.,0.));
#114 = PLANE('',#115);
#115 = AXIS2_PLACEMENT_3D('',#116,#117,#118);
#116 = CARTESIAN_POINT('',(0.5,0.5,5.E-03));
#117 = DIRECTION('',(1.,0.,0.));
#118 = DIRECTION('',(0.,-1.,0.));
#119 = ADVANCED_FACE('',(#120,#131,#174,#217,#260),#303,.T.);
#120 = FACE_BOUND('',#121,.T.);
#121 = EDGE_LOOP('',(#122,#123,#124,#130));
#122 = ORIENTED_EDGE('',*,*,#47,.T.);
#123 = ORIENTED_EDGE('',*,*,#109,.T.);
#124 = ORIENTED_EDGE('',*,*,#125,.T.);
#125 = EDGE_CURVE('',#102,#62,#126,.T.);
#126 = LINE('',#127,#128);
#127 = CARTESIAN_POINT('',(0.5,-0.5,5.E-03));
#128 = VECTOR('',#129,1.);
#129 = DIRECTION('',(-1.,0.,0.));
#130 = ORIENTED_EDGE('',*,*,#78,.T.);
#131 = FACE_BOUND('',#132,.T.);
#132 = EDGE_LOOP('',(#133,#143,#151,#159,#167));
#133 = ORIENTED_EDGE('',*,*,#134,.F.);
#134 = EDGE_CURVE('',#135,#137,#139,.T.);
#135 = VERTEX_POINT('',#136);
#136 = CARTESIAN_POINT('',(0.47,-0.18,5.E-03));
#137 = VERTEX_POINT('',#138);
#138 = CARTESIAN_POINT('',(0.47,-0.39,5.E-03));
#139 = LINE('',#140,#141);
#140 = CARTESIAN_POINT('',(0.47,-9.E-02,5.E-03));
#141 = VECTOR('',#142,1.);
#142 = DIRECTION('',(-2.22044604925E-16,-1.,0.));
#143 = ORIENTED_EDGE('',*,*,#144,.F.);
#144 = EDGE_CURVE('',#145,#135,#147,.T.);
#145 = VERTEX_POINT('',#146);
#146 = CARTESIAN_POINT('',(0.18,-0.18,5.E-03));
#147 = LINE('',#148,#149);
#148 = CARTESIAN_POINT('',(9.E-02,-0.18,5.E-03));
#149 = VECTOR('',#150,1.);
#150 = DIRECTION('',(1.,-2.22044604925E-16,0.));
#151 = ORIENTED_EDGE('',*,*,#152,.F.);
#152 = EDGE_CURVE('',#153,#145,#155,.T.);
#153 = VERTEX_POINT('',#154);
#154 = CARTESIAN_POINT('',(0.18,-0.47,5.E-03));
#155 = LINE('',#156,#157);
#156 = CARTESIAN_POINT('',(0.18,-0.235,5.E-03));
#157 = VECTOR('',#158,1.);
#158 = DIRECTION('',(2.22044604925E-16,1.,0.));
#159 = ORIENTED_EDGE('',*,*,#160,.F.);
#160 = EDGE_CURVE('',#161,#153,#163,.T.);
#161 = VERTEX_POINT('',#162);
#162 = CARTESIAN_POINT('',(0.39,-0.47,5.E-03));
#163 = LINE('',#164,#165);
#164 = CARTESIAN_POINT('',(0.195,-0.47,5.E-03));
#165 = VECTOR('',#166,1.);
#166 = DIRECTION('',(-1.,2.22044604925E-16,0.));
#167 = ORIENTED_EDGE('',*,*,#168,.T.);
#168 = EDGE_CURVE('',#161,#137,#169,.T.);
#169 = CIRCLE('',#170,8.E-02);
#170 = AXIS2_PLACEMENT_3D('',#171,#172,#173);
#171 = CARTESIAN_POINT('',(0.47,-0.47,5.E-03));
#172 = DIRECTION('',(0.,0.,-1.));
#173 = DIRECTION('',(-2.22044604925E-16,-1.,-0.));
#174 = FACE_BOUND('',#175,.T.);
#175 = EDGE_LOOP('',(#176,#186,#194,#202,#210));
#176 = ORIENTED_EDGE('',*,*,#177,.F.);
#177 = EDGE_CURVE('',#178,#180,#182,.T.);
#178 = VERTEX_POINT('',#179);
#179 = CARTESIAN_POINT('',(-0.18,-0.47,5.E-03));
#180 = VERTEX_POINT('',#181);
#181 = CARTESIAN_POINT('',(-0.39,-0.47,5.E-03));
#182 = LINE('',#183,#184);
#183 = CARTESIAN_POINT('',(-9.E-02,-0.47,5.E-03));
#184 = VECTOR('',#185,1.);
#185 = DIRECTION('',(-1.,1.224646799147E-16,0.));
#186 = ORIENTED_EDGE('',*,*,#187,.F.);
#187 = EDGE_CURVE('',#188,#178,#190,.T.);
#188 = VERTEX_POINT('',#189);
#189 = CARTESIAN_POINT('',(-0.18,-0.18,5.E-03));
#190 = LINE('',#191,#192);
#191 = CARTESIAN_POINT('',(-0.18,-9.E-02,5.E-03));
#192 = VECTOR('',#193,1.);
#193 = DIRECTION('',(-1.224646799147E-16,-1.,0.));
#194 = ORIENTED_EDGE('',*,*,#195,.F.);
#195 = EDGE_CURVE('',#196,#188,#198,.T.);
#196 = VERTEX_POINT('',#197);
#197 = CARTESIAN_POINT('',(-0.47,-0.18,5.E-03));
#198 = LINE('',#199,#200);
#199 = CARTESIAN_POINT('',(-0.235,-0.18,5.E-03));
#200 = VECTOR('',#201,1.);
#201 = DIRECTION('',(1.,-1.224646799147E-16,0.));
#202 = ORIENTED_EDGE('',*,*,#203,.F.);
#203 = EDGE_CURVE('',#204,#196,#206,.T.);
#204 = VERTEX_POINT('',#205);
#205 = CARTESIAN_POINT('',(-0.47,-0.39,5.E-03));
#206 = LINE('',#207,#208);
#207 = CARTESIAN_POINT('',(-0.47,-0.195,5.E-03));
#208 = VECTOR('',#209,1.);
#209 = DIRECTION('',(1.224646799147E-16,1.,0.));
#210 = ORIENTED_EDGE('',*,*,#211,.T.);
#211 = EDGE_CURVE('',#204,#180,#212,.T.);
#212 = CIRCLE('',#213,8.E-02);
#213 = AXIS2_PLACEMENT_3D('',#214,#215,#216);
#214 = CARTESIAN_POINT('',(-0.47,-0.47,5.E-03));
#215 = DIRECTION('',(0.,0.,-1.));
#216 = DIRECTION('',(-1.,1.224646799147E-16,0.));
#217 = FACE_BOUND('',#218,.T.);
#218 = EDGE_LOOP('',(#219,#229,#237,#245,#253));
#219 = ORIENTED_EDGE('',*,*,#220,.F.);
#220 = EDGE_CURVE('',#221,#223,#225,.T.);
#221 = VERTEX_POINT('',#222);
#222 = CARTESIAN_POINT('',(0.18,0.47,5.E-03));
#223 = VERTEX_POINT('',#224);
#224 = CARTESIAN_POINT('',(0.39,0.47,5.E-03));
#225 = LINE('',#226,#227);
#226 = CARTESIAN_POINT('',(9.E-02,0.47,5.E-03));
#227 = VECTOR('',#228,1.);
#228 = DIRECTION('',(1.,0.,0.));
#229 = ORIENTED_EDGE('',*,*,#230,.F.);
#230 = EDGE_CURVE('',#231,#221,#233,.T.);
#231 = VERTEX_POINT('',#232);
#232 = CARTESIAN_POINT('',(0.18,0.18,5.E-03));
#233 = LINE('',#234,#235);
#234 = CARTESIAN_POINT('',(0.18,9.E-02,5.E-03));
#235 = VECTOR('',#236,1.);
#236 = DIRECTION('',(0.,1.,0.));
#237 = ORIENTED_EDGE('',*,*,#238,.F.);
#238 = EDGE_CURVE('',#239,#231,#241,.T.);
#239 = VERTEX_POINT('',#240);
#240 = CARTESIAN_POINT('',(0.47,0.18,5.E-03));
#241 = LINE('',#242,#243);
#242 = CARTESIAN_POINT('',(0.235,0.18,5.E-03));
#243 = VECTOR('',#244,1.);
#244 = DIRECTION('',(-1.,0.,0.));
#245 = ORIENTED_EDGE('',*,*,#246,.F.);
#246 = EDGE_CURVE('',#247,#239,#249,.T.);
#247 = VERTEX_POINT('',#248);
#248 = CARTESIAN_POINT('',(0.47,0.39,5.E-03));
#249 = LINE('',#250,#251);
#250 = CARTESIAN_POINT('',(0.47,0.195,5.E-03));
#251 = VECTOR('',#252,1.);
#252 = DIRECTION('',(0.,-1.,0.));
#253 = ORIENTED_EDGE('',*,*,#254,.T.);
#254 = EDGE_CURVE('',#247,#223,#255,.T.);
#255 = CIRCLE('',#256,8.E-02);
#256 = AXIS2_PLACEMENT_3D('',#257,#258,#259);
#257 = CARTESIAN_POINT('',(0.47,0.47,5.E-03));
#258 = DIRECTION('',(0.,0.,-1.));
#259 = DIRECTION('',(1.,0.,0.));
#260 = FACE_BOUND('',#261,.T.);
#261 = EDGE_LOOP('',(#262,#272,#280,#288,#296));
#262 = ORIENTED_EDGE('',*,*,#263,.F.);
#263 = EDGE_CURVE('',#264,#266,#268,.T.);
#264 = VERTEX_POINT('',#265);
#265 = CARTESIAN_POINT('',(-0.47,0.18,5.E-03));
#266 = VERTEX_POINT('',#267);
#267 = CARTESIAN_POINT('',(-0.47,0.39,5.E-03));
#268 = LINE('',#269,#270);
#269 = CARTESIAN_POINT('',(-0.47,9.E-02,5.E-03));
#270 = VECTOR('',#271,1.);
#271 = DIRECTION('',(2.22044604925E-16,1.,0.));
#272 = ORIENTED_EDGE('',*,*,#273,.F.);
#273 = EDGE_CURVE('',#274,#264,#276,.T.);
#274 = VERTEX_POINT('',#275);
#275 = CARTESIAN_POINT('',(-0.18,0.18,5.E-03));
#276 = LINE('',#277,#278);
#277 = CARTESIAN_POINT('',(-9.E-02,0.18,5.E-03));
#278 = VECTOR('',#279,1.);
#279 = DIRECTION('',(-1.,2.22044604925E-16,0.));
#280 = ORIENTED_EDGE('',*,*,#281,.F.);
#281 = EDGE_CURVE('',#282,#274,#284,.T.);
#282 = VERTEX_POINT('',#283);
#283 = CARTESIAN_POINT('',(-0.18,0.47,5.E-03));
#284 = LINE('',#285,#286);
#285 = CARTESIAN_POINT('',(-0.18,0.235,5.E-03));
#286 = VECTOR('',#287,1.);
#287 = DIRECTION('',(-2.22044604925E-16,-1.,0.));
#288 = ORIENTED_EDGE('',*,*,#289,.F.);
#289 = EDGE_CURVE('',#290,#282,#292,.T.);
#290 = VERTEX_POINT('',#291);
#291 = CARTESIAN_POINT('',(-0.39,0.47,5.E-03));
#292 = LINE('',#293,#294);
#293 = CARTESIAN_POINT('',(-0.195,0.47,5.E-03));
#294 = VECTOR('',#295,1.);
#295 = DIRECTION('',(1.,-2.22044604925E-16,0.));
#296 = ORIENTED_EDGE('',*,*,#297,.T.);
#297 = EDGE_CURVE('',#290,#266,#298,.T.);
#298 = CIRCLE('',#299,8.E-02);
#299 = AXIS2_PLACEMENT_3D('',#300,#301,#302);
#300 = CARTESIAN_POINT('',(-0.47,0.47,5.E-03));
#301 = DIRECTION('',(0.,0.,-1.));
#302 = DIRECTION('',(2.22044604925E-16,1.,0.));
#303 = PLANE('',#304);
#304 = AXIS2_PLACEMENT_3D('',#305,#306,#307);
#305 = CARTESIAN_POINT('',(0.,0.,5.E-03));
#306 = DIRECTION('',(-0.,-0.,-1.));
#307 = DIRECTION('',(-1.,0.,0.));
#308 = ADVANCED_FACE('',(#309,#320,#354,#388),#422,.F.);
#309 = FACE_BOUND('',#310,.F.);
#310 = EDGE_LOOP('',(#311,#312,#313,#319));
#311 = ORIENTED_EDGE('',*,*,#31,.T.);
#312 = ORIENTED_EDGE('',*,*,#93,.T.);
#313 = ORIENTED_EDGE('',*,*,#314,.T.);
#314 = EDGE_CURVE('',#94,#64,#315,.T.);
#315 = LINE('',#316,#317);
#316 = CARTESIAN_POINT('',(0.5,-0.5,0.305));
#317 = VECTOR('',#318,1.);
#318 = DIRECTION('',(-1.,0.,0.));
#319 = ORIENTED_EDGE('',*,*,#71,.T.);
#320 = FACE_BOUND('',#321,.F.);
#321 = EDGE_LOOP('',(#322,#332,#340,#348));
#322 = ORIENTED_EDGE('',*,*,#323,.F.);
#323 = EDGE_CURVE('',#324,#326,#328,.T.);
#324 = VERTEX_POINT('',#325);
#325 = CARTESIAN_POINT('',(-0.1,-0.2,0.305));
#326 = VERTEX_POINT('',#327);
#327 = CARTESIAN_POINT('',(0.1,-0.2,0.305));
#328 = LINE('',#329,#330);
#329 = CARTESIAN_POINT('',(-5.E-02,-0.2,0.305));
#330 = VECTOR('',#331,1.);
#331 = DIRECTION('',(1.,0.,0.));
#332 = ORIENTED_EDGE('',*,*,#333,.F.);
#333 = EDGE_CURVE('',#334,#324,#336,.T.);
#334 = VERTEX_POINT('',#335);
#335 = CARTESIAN_POINT('',(-0.1,-0.4,0.305));
#336 = LINE('',#337,#338);
#337 = CARTESIAN_POINT('',(-0.1,-0.2,0.305));
#338 = VECTOR('',#339,1.);
#339 = DIRECTION('',(0.,1.,0.));
#340 = ORIENTED_EDGE('',*,*,#341,.F.);
#341 = EDGE_CURVE('',#342,#334,#344,.T.);
#342 = VERTEX_POINT('',#343);
#343 = CARTESIAN_POINT('',(0.1,-0.4,0.305));
#344 = LINE('',#345,#346);
#345 = CARTESIAN_POINT('',(5.E-02,-0.4,0.305));
#346 = VECTOR('',#347,1.);
#347 = DIRECTION('',(-1.,0.,0.));
#348 = ORIENTED_EDGE('',*,*,#349,.F.);
#349 = EDGE_CURVE('',#326,#342,#350,.T.);
#350 = LINE('',#351,#352);
#351 = CARTESIAN_POINT('',(0.1,-1.E-01,0.305));
#352 = VECTOR('',#353,1.);
#353 = DIRECTION('',(0.,-1.,0.));
#354 = FACE_BOUND('',#355,.F.);
#355 = EDGE_LOOP('',(#356,#366,#374,#382));
#356 = ORIENTED_EDGE('',*,*,#357,.F.);
#357 = EDGE_CURVE('',#358,#360,#362,.T.);
#358 = VERTEX_POINT('',#359);
#359 = CARTESIAN_POINT('',(-0.1,0.1,0.305));
#360 = VERTEX_POINT('',#361);
#361 = CARTESIAN_POINT('',(0.1,0.1,0.305));
#362 = LINE('',#363,#364);
#363 = CARTESIAN_POINT('',(-5.E-02,0.1,0.305));
#364 = VECTOR('',#365,1.);
#365 = DIRECTION('',(1.,0.,0.));
#366 = ORIENTED_EDGE('',*,*,#367,.F.);
#367 = EDGE_CURVE('',#368,#358,#370,.T.);
#368 = VERTEX_POINT('',#369);
#369 = CARTESIAN_POINT('',(-0.1,-1.E-01,0.305));
#370 = LINE('',#371,#372);
#371 = CARTESIAN_POINT('',(-0.1,-5.E-02,0.305));
#372 = VECTOR('',#373,1.);
#373 = DIRECTION('',(0.,1.,0.));
#374 = ORIENTED_EDGE('',*,*,#375,.F.);
#375 = EDGE_CURVE('',#376,#368,#378,.T.);
#376 = VERTEX_POINT('',#377);
#377 = CARTESIAN_POINT('',(0.1,-1.E-01,0.305));
#378 = LINE('',#379,#380);
#379 = CARTESIAN_POINT('',(5.E-02,-1.E-01,0.305));
#380 = VECTOR('',#381,1.);
#381 = DIRECTION('',(-1.,0.,0.));
#382 = ORIENTED_EDGE('',*,*,#383,.F.);
#383 = EDGE_CURVE('',#360,#376,#384,.T.);
#384 = LINE('',#385,#386);
#385 = CARTESIAN_POINT('',(0.1,5.E-02,0.305));
#386 = VECTOR('',#387,1.);
#387 = DIRECTION('',(0.,-1.,0.));
#388 = FACE_BOUND('',#389,.F.);
#389 = EDGE_LOOP('',(#390,#400,#408,#416));
#390 = ORIENTED_EDGE('',*,*,#391,.F.);
#391 = EDGE_CURVE('',#392,#394,#396,.T.);
#392 = VERTEX_POINT('',#393);
#393 = CARTESIAN_POINT('',(-0.1,0.4,0.305));
#394 = VERTEX_POINT('',#395);
#395 = CARTESIAN_POINT('',(0.1,0.4,0.305));
#396 = LINE('',#397,#398);
#397 = CARTESIAN_POINT('',(-5.E-02,0.4,0.305));
#398 = VECTOR('',#399,1.);
#399 = DIRECTION('',(1.,0.,0.));
#400 = ORIENTED_EDGE('',*,*,#401,.F.);
#401 = EDGE_CURVE('',#402,#392,#404,.T.);
#402 = VERTEX_POINT('',#403);
#403 = CARTESIAN_POINT('',(-0.1,0.2,0.305));
#404 = LINE('',#405,#406);
#405 = CARTESIAN_POINT('',(-0.1,0.1,0.305));
#406 = VECTOR('',#407,1.);
#407 = DIRECTION('',(0.,1.,0.));
#408 = ORIENTED_EDGE('',*,*,#409,.F.);
#409 = EDGE_CURVE('',#410,#402,#412,.T.);
#410 = VERTEX_POINT('',#411);
#411 = CARTESIAN_POINT('',(0.1,0.2,0.305));
#412 = LINE('',#413,#414);
#413 = CARTESIAN_POINT('',(5.E-02,0.2,0.305));
#414 = VECTOR('',#415,1.);
#415 = DIRECTION('',(-1.,0.,0.));
#416 = ORIENTED_EDGE('',*,*,#417,.F.);
#417 = EDGE_CURVE('',#394,#410,#418,.T.);
#418 = LINE('',#419,#420);
#419 = CARTESIAN_POINT('',(0.1,0.2,0.305));
#420 = VECTOR('',#421,1.);
#421 = DIRECTION('',(0.,-1.,0.));
#422 = PLANE('',#423);
#423 = AXIS2_PLACEMENT_3D('',#424,#425,#426);
#424 = CARTESIAN_POINT('',(0.,0.,0.305));
#425 = DIRECTION('',(-0.,-0.,-1.));
#426 = DIRECTION('',(-1.,0.,0.));
#427 = ADVANCED_FACE('',(#428),#434,.T.);
#428 = FACE_BOUND('',#429,.T.);
#429 = EDGE_LOOP('',(#430,#431,#432,#433));
#430 = ORIENTED_EDGE('',*,*,#101,.T.);
#431 = ORIENTED_EDGE('',*,*,#314,.T.);
#432 = ORIENTED_EDGE('',*,*,#61,.F.);
#433 = ORIENTED_EDGE('',*,*,#125,.F.);
#434 = PLANE('',#435);
#435 = AXIS2_PLACEMENT_3D('',#436,#437,#438);
#436 = CARTESIAN_POINT('',(0.5,-0.5,5.E-03));
#437 = DIRECTION('',(0.,-1.,0.));
#438 = DIRECTION('',(-1.,0.,0.));
#439 = ADVANCED_FACE('',(#440),#465,.T.);
#440 = FACE_BOUND('',#441,.T.);
#441 = EDGE_LOOP('',(#442,#452,#458,#459));
#442 = ORIENTED_EDGE('',*,*,#443,.F.);
#443 = EDGE_CURVE('',#444,#446,#448,.T.);
#444 = VERTEX_POINT('',#445);
#445 = CARTESIAN_POINT('',(0.47,-0.18,0.));
#446 = VERTEX_POINT('',#447);
#447 = CARTESIAN_POINT('',(0.47,-0.39,0.));
#448 = LINE('',#449,#450);
#449 = CARTESIAN_POINT('',(0.47,-0.18,0.));
#450 = VECTOR('',#451,1.);
#451 = DIRECTION('',(-2.22044604925E-16,-1.,0.));
#452 = ORIENTED_EDGE('',*,*,#453,.T.);
#453 = EDGE_CURVE('',#444,#135,#454,.T.);
#454 = LINE('',#455,#456);
#455 = CARTESIAN_POINT('',(0.47,-0.18,0.));
#456 = VECTOR('',#457,1.);
#457 = DIRECTION('',(0.,0.,1.));
#458 = ORIENTED_EDGE('',*,*,#134,.T.);
#459 = ORIENTED_EDGE('',*,*,#460,.F.);
#460 = EDGE_CURVE('',#446,#137,#461,.T.);
#461 = LINE('',#462,#463);
#462 = CARTESIAN_POINT('',(0.47,-0.39,0.));
#463 = VECTOR('',#464,1.);
#464 = DIRECTION('',(0.,0.,1.));
#465 = PLANE('',#466);
#466 = AXIS2_PLACEMENT_3D('',#467,#468,#469);
#467 = CARTESIAN_POINT('',(0.47,-0.18,0.));
#468 = DIRECTION('',(1.,-2.22044604925E-16,0.));
#469 = DIRECTION('',(-2.22044604925E-16,-1.,0.));
#470 = ADVANCED_FACE('',(#471),#490,.F.);
#471 = FACE_BOUND('',#472,.T.);
#472 = EDGE_LOOP('',(#473,#482,#483,#484));
#473 = ORIENTED_EDGE('',*,*,#474,.F.);
#474 = EDGE_CURVE('',#446,#475,#477,.T.);
#475 = VERTEX_POINT('',#476);
#476 = CARTESIAN_POINT('',(0.39,-0.47,0.));
#477 = CIRCLE('',#478,8.E-02);
#478 = AXIS2_PLACEMENT_3D('',#479,#480,#481);
#479 = CARTESIAN_POINT('',(0.47,-0.47,0.));
#480 = DIRECTION('',(0.,0.,1.));
#481 = DIRECTION('',(-2.22044604925E-16,-1.,0.));
#482 = ORIENTED_EDGE('',*,*,#460,.T.);
#483 = ORIENTED_EDGE('',*,*,#168,.F.);
#484 = ORIENTED_EDGE('',*,*,#485,.F.);
#485 = EDGE_CURVE('',#475,#161,#486,.T.);
#486 = LINE('',#487,#488);
#487 = CARTESIAN_POINT('',(0.39,-0.47,0.));
#488 = VECTOR('',#489,1.);
#489 = DIRECTION('',(0.,0.,1.));
#490 = CYLINDRICAL_SURFACE('',#491,8.E-02);
#491 = AXIS2_PLACEMENT_3D('',#492,#493,#494);
#492 = CARTESIAN_POINT('',(0.47,-0.47,0.));
#493 = DIRECTION('',(0.,0.,-1.));
#494 = DIRECTION('',(-2.22044604925E-16,-1.,0.));
#495 = ADVANCED_FACE('',(#496),#514,.T.);
#496 = FACE_BOUND('',#497,.T.);
#497 = EDGE_LOOP('',(#498,#506,#507,#508));
#498 = ORIENTED_EDGE('',*,*,#499,.F.);
#499 = EDGE_CURVE('',#475,#500,#502,.T.);
#500 = VERTEX_POINT('',#501);
#501 = CARTESIAN_POINT('',(0.18,-0.47,0.));
#502 = LINE('',#503,#504);
#503 = CARTESIAN_POINT('',(0.39,-0.47,0.));
#504 = VECTOR('',#505,1.);
#505 = DIRECTION('',(-1.,2.22044604925E-16,0.));
#506 = ORIENTED_EDGE('',*,*,#485,.T.);
#507 = ORIENTED_EDGE('',*,*,#160,.T.);
#508 = ORIENTED_EDGE('',*,*,#509,.F.);
#509 = EDGE_CURVE('',#500,#153,#510,.T.);
#510 = LINE('',#511,#512);
#511 = CARTESIAN_POINT('',(0.18,-0.47,0.));
#512 = VECTOR('',#513,1.);
#513 = DIRECTION('',(0.,0.,1.));
#514 = PLANE('',#515);
#515 = AXIS2_PLACEMENT_3D('',#516,#517,#518);
#516 = CARTESIAN_POINT('',(0.39,-0.47,0.));
#517 = DIRECTION('',(-2.22044604925E-16,-1.,0.));
#518 = DIRECTION('',(-1.,2.22044604925E-16,0.));
#519 = ADVANCED_FACE('',(#520),#538,.T.);
#520 = FACE_BOUND('',#521,.T.);
#521 = EDGE_LOOP('',(#522,#530,#531,#532));
#522 = ORIENTED_EDGE('',*,*,#523,.F.);
#523 = EDGE_CURVE('',#500,#524,#526,.T.);
#524 = VERTEX_POINT('',#525);
#525 = CARTESIAN_POINT('',(0.18,-0.18,0.));
#526 = LINE('',#527,#528);
#527 = CARTESIAN_POINT('',(0.18,-0.47,0.));
#528 = VECTOR('',#529,1.);
#529 = DIRECTION('',(2.22044604925E-16,1.,0.));
#530 = ORIENTED_EDGE('',*,*,#509,.T.);
#531 = ORIENTED_EDGE('',*,*,#152,.T.);
#532 = ORIENTED_EDGE('',*,*,#533,.F.);
#533 = EDGE_CURVE('',#524,#145,#534,.T.);
#534 = LINE('',#535,#536);
#535 = CARTESIAN_POINT('',(0.18,-0.18,0.));
#536 = VECTOR('',#537,1.);
#537 = DIRECTION('',(0.,0.,1.));
#538 = PLANE('',#539);
#539 = AXIS2_PLACEMENT_3D('',#540,#541,#542);
#540 = CARTESIAN_POINT('',(0.18,-0.47,0.));
#541 = DIRECTION('',(-1.,2.22044604925E-16,0.));
#542 = DIRECTION('',(2.22044604925E-16,1.,0.));
#543 = ADVANCED_FACE('',(#544),#555,.T.);
#544 = FACE_BOUND('',#545,.T.);
#545 = EDGE_LOOP('',(#546,#552,#553,#554));
#546 = ORIENTED_EDGE('',*,*,#547,.F.);
#547 = EDGE_CURVE('',#524,#444,#548,.T.);
#548 = LINE('',#549,#550);
#549 = CARTESIAN_POINT('',(0.18,-0.18,0.));
#550 = VECTOR('',#551,1.);
#551 = DIRECTION('',(1.,-2.22044604925E-16,0.));
#552 = ORIENTED_EDGE('',*,*,#533,.T.);
#553 = ORIENTED_EDGE('',*,*,#144,.T.);
#554 = ORIENTED_EDGE('',*,*,#453,.F.);
#555 = PLANE('',#556);
#556 = AXIS2_PLACEMENT_3D('',#557,#558,#559);
#557 = CARTESIAN_POINT('',(0.18,-0.18,0.));
#558 = DIRECTION('',(2.22044604925E-16,1.,0.));
#559 = DIRECTION('',(1.,-2.22044604925E-16,0.));
#560 = ADVANCED_FACE('',(#561),#586,.T.);
#561 = FACE_BOUND('',#562,.T.);
#562 = EDGE_LOOP('',(#563,#573,#579,#580));
#563 = ORIENTED_EDGE('',*,*,#564,.F.);
#564 = EDGE_CURVE('',#565,#567,#569,.T.);
#565 = VERTEX_POINT('',#566);
#566 = CARTESIAN_POINT('',(-0.18,-0.47,0.));
#567 = VERTEX_POINT('',#568);
#568 = CARTESIAN_POINT('',(-0.39,-0.47,0.));
#569 = LINE('',#570,#571);
#570 = CARTESIAN_POINT('',(-0.18,-0.47,0.));
#571 = VECTOR('',#572,1.);
#572 = DIRECTION('',(-1.,1.224646799147E-16,0.));
#573 = ORIENTED_EDGE('',*,*,#574,.T.);
#574 = EDGE_CURVE('',#565,#178,#575,.T.);
#575 = LINE('',#576,#577);
#576 = CARTESIAN_POINT('',(-0.18,-0.47,0.));
#577 = VECTOR('',#578,1.);
#578 = DIRECTION('',(0.,0.,1.));
#579 = ORIENTED_EDGE('',*,*,#177,.T.);
#580 = ORIENTED_EDGE('',*,*,#581,.F.);
#581 = EDGE_CURVE('',#567,#180,#582,.T.);
#582 = LINE('',#583,#584);
#583 = CARTESIAN_POINT('',(-0.39,-0.47,0.));
#584 = VECTOR('',#585,1.);
#585 = DIRECTION('',(0.,0.,1.));
#586 = PLANE('',#587);
#587 = AXIS2_PLACEMENT_3D('',#588,#589,#590);
#588 = CARTESIAN_POINT('',(-0.18,-0.47,0.));
#589 = DIRECTION('',(-1.224646799147E-16,-1.,0.));
#590 = DIRECTION('',(-1.,1.224646799147E-16,0.));
#591 = ADVANCED_FACE('',(#592),#611,.F.);
#592 = FACE_BOUND('',#593,.T.);
#593 = EDGE_LOOP('',(#594,#603,#604,#605));
#594 = ORIENTED_EDGE('',*,*,#595,.F.);
#595 = EDGE_CURVE('',#567,#596,#598,.T.);
#596 = VERTEX_POINT('',#597);
#597 = CARTESIAN_POINT('',(-0.47,-0.39,0.));
#598 = CIRCLE('',#599,8.E-02);
#599 = AXIS2_PLACEMENT_3D('',#600,#601,#602);
#600 = CARTESIAN_POINT('',(-0.47,-0.47,0.));
#601 = DIRECTION('',(0.,0.,1.));
#602 = DIRECTION('',(-1.,1.224646799147E-16,0.));
#603 = ORIENTED_EDGE('',*,*,#581,.T.);
#604 = ORIENTED_EDGE('',*,*,#211,.F.);
#605 = ORIENTED_EDGE('',*,*,#606,.F.);
#606 = EDGE_CURVE('',#596,#204,#607,.T.);
#607 = LINE('',#608,#609);
#608 = CARTESIAN_POINT('',(-0.47,-0.39,0.));
#609 = VECTOR('',#610,1.);
#610 = DIRECTION('',(0.,0.,1.));
#611 = CYLINDRICAL_SURFACE('',#612,8.E-02);
#612 = AXIS2_PLACEMENT_3D('',#613,#614,#615);
#613 = CARTESIAN_POINT('',(-0.47,-0.47,0.));
#614 = DIRECTION('',(0.,0.,-1.));
#615 = DIRECTION('',(-1.,1.224646799147E-16,0.));
#616 = ADVANCED_FACE('',(#617),#635,.T.);
#617 = FACE_BOUND('',#618,.T.);
#618 = EDGE_LOOP('',(#619,#627,#628,#629));
#619 = ORIENTED_EDGE('',*,*,#620,.F.);
#620 = EDGE_CURVE('',#596,#621,#623,.T.);
#621 = VERTEX_POINT('',#622);
#622 = CARTESIAN_POINT('',(-0.47,-0.18,0.));
#623 = LINE('',#624,#625);
#624 = CARTESIAN_POINT('',(-0.47,-0.39,0.));
#625 = VECTOR('',#626,1.);
#626 = DIRECTION('',(1.224646799147E-16,1.,0.));
#627 = ORIENTED_EDGE('',*,*,#606,.T.);
#628 = ORIENTED_EDGE('',*,*,#203,.T.);
#629 = ORIENTED_EDGE('',*,*,#630,.F.);
#630 = EDGE_CURVE('',#621,#196,#631,.T.);
#631 = LINE('',#632,#633);
#632 = CARTESIAN_POINT('',(-0.47,-0.18,0.));
#633 = VECTOR('',#634,1.);
#634 = DIRECTION('',(0.,0.,1.));
#635 = PLANE('',#636);
#636 = AXIS2_PLACEMENT_3D('',#637,#638,#639);
#637 = CARTESIAN_POINT('',(-0.47,-0.39,0.));
#638 = DIRECTION('',(-1.,1.224646799147E-16,0.));
#639 = DIRECTION('',(1.224646799147E-16,1.,0.));
#640 = ADVANCED_FACE('',(#641),#659,.T.);
#641 = FACE_BOUND('',#642,.T.);
#642 = EDGE_LOOP('',(#643,#651,#652,#653));
#643 = ORIENTED_EDGE('',*,*,#644,.F.);
#644 = EDGE_CURVE('',#621,#645,#647,.T.);
#645 = VERTEX_POINT('',#646);
#646 = CARTESIAN_POINT('',(-0.18,-0.18,0.));
#647 = LINE('',#648,#649);
#648 = CARTESIAN_POINT('',(-0.47,-0.18,0.));
#649 = VECTOR('',#650,1.);
#650 = DIRECTION('',(1.,-1.224646799147E-16,0.));
#651 = ORIENTED_EDGE('',*,*,#630,.T.);
#652 = ORIENTED_EDGE('',*,*,#195,.T.);
#653 = ORIENTED_EDGE('',*,*,#654,.F.);
#654 = EDGE_CURVE('',#645,#188,#655,.T.);
#655 = LINE('',#656,#657);
#656 = CARTESIAN_POINT('',(-0.18,-0.18,0.));
#657 = VECTOR('',#658,1.);
#658 = DIRECTION('',(0.,0.,1.));
#659 = PLANE('',#660);
#660 = AXIS2_PLACEMENT_3D('',#661,#662,#663);
#661 = CARTESIAN_POINT('',(-0.47,-0.18,0.));
#662 = DIRECTION('',(1.224646799147E-16,1.,0.));
#663 = DIRECTION('',(1.,-1.224646799147E-16,0.));
#664 = ADVANCED_FACE('',(#665),#676,.T.);
#665 = FACE_BOUND('',#666,.T.);
#666 = EDGE_LOOP('',(#667,#673,#674,#675));
#667 = ORIENTED_EDGE('',*,*,#668,.F.);
#668 = EDGE_CURVE('',#645,#565,#669,.T.);
#669 = LINE('',#670,#671);
#670 = CARTESIAN_POINT('',(-0.18,-0.18,0.));
#671 = VECTOR('',#672,1.);
#672 = DIRECTION('',(-1.224646799147E-16,-1.,0.));
#673 = ORIENTED_EDGE('',*,*,#654,.T.);
#674 = ORIENTED_EDGE('',*,*,#187,.T.);
#675 = ORIENTED_EDGE('',*,*,#574,.F.);
#676 = PLANE('',#677);
#677 = AXIS2_PLACEMENT_3D('',#678,#679,#680);
#678 = CARTESIAN_POINT('',(-0.18,-0.18,0.));
#679 = DIRECTION('',(1.,-1.224646799147E-16,0.));
#680 = DIRECTION('',(-1.224646799147E-16,-1.,0.));
#681 = ADVANCED_FACE('',(#682),#707,.T.);
#682 = FACE_BOUND('',#683,.T.);
#683 = EDGE_LOOP('',(#684,#694,#700,#701));
#684 = ORIENTED_EDGE('',*,*,#685,.F.);
#685 = EDGE_CURVE('',#686,#688,#690,.T.);
#686 = VERTEX_POINT('',#687);
#687 = CARTESIAN_POINT('',(0.18,0.47,0.));
#688 = VERTEX_POINT('',#689);
#689 = CARTESIAN_POINT('',(0.39,0.47,0.));
#690 = LINE('',#691,#692);
#691 = CARTESIAN_POINT('',(0.18,0.47,0.));
#692 = VECTOR('',#693,1.);
#693 = DIRECTION('',(1.,0.,0.));
#694 = ORIENTED_EDGE('',*,*,#695,.T.);
#695 = EDGE_CURVE('',#686,#221,#696,.T.);
#696 = LINE('',#697,#698);
#697 = CARTESIAN_POINT('',(0.18,0.47,0.));
#698 = VECTOR('',#699,1.);
#699 = DIRECTION('',(0.,0.,1.));
#700 = ORIENTED_EDGE('',*,*,#220,.T.);
#701 = ORIENTED_EDGE('',*,*,#702,.F.);
#702 = EDGE_CURVE('',#688,#223,#703,.T.);
#703 = LINE('',#704,#705);
#704 = CARTESIAN_POINT('',(0.39,0.47,0.));
#705 = VECTOR('',#706,1.);
#706 = DIRECTION('',(0.,0.,1.));
#707 = PLANE('',#708);
#708 = AXIS2_PLACEMENT_3D('',#709,#710,#711);
#709 = CARTESIAN_POINT('',(0.18,0.47,0.));
#710 = DIRECTION('',(0.,1.,0.));
#711 = DIRECTION('',(1.,0.,0.));
#712 = ADVANCED_FACE('',(#713),#732,.F.);
#713 = FACE_BOUND('',#714,.T.);
#714 = EDGE_LOOP('',(#715,#724,#725,#726));
#715 = ORIENTED_EDGE('',*,*,#716,.F.);
#716 = EDGE_CURVE('',#688,#717,#719,.T.);
#717 = VERTEX_POINT('',#718);
#718 = CARTESIAN_POINT('',(0.47,0.39,0.));
#719 = CIRCLE('',#720,8.E-02);
#720 = AXIS2_PLACEMENT_3D('',#721,#722,#723);
#721 = CARTESIAN_POINT('',(0.47,0.47,0.));
#722 = DIRECTION('',(0.,0.,1.));
#723 = DIRECTION('',(1.,0.,0.));
#724 = ORIENTED_EDGE('',*,*,#702,.T.);
#725 = ORIENTED_EDGE('',*,*,#254,.F.);
#726 = ORIENTED_EDGE('',*,*,#727,.F.);
#727 = EDGE_CURVE('',#717,#247,#728,.T.);
#728 = LINE('',#729,#730);
#729 = CARTESIAN_POINT('',(0.47,0.39,0.));
#730 = VECTOR('',#731,1.);
#731 = DIRECTION('',(0.,0.,1.));
#732 = CYLINDRICAL_SURFACE('',#733,8.E-02);
#733 = AXIS2_PLACEMENT_3D('',#734,#735,#736);
#734 = CARTESIAN_POINT('',(0.47,0.47,0.));
#735 = DIRECTION('',(-0.,-0.,-1.));
#736 = DIRECTION('',(1.,0.,0.));
#737 = ADVANCED_FACE('',(#738),#756,.T.);
#738 = FACE_BOUND('',#739,.T.);
#739 = EDGE_LOOP('',(#740,#748,#749,#750));
#740 = ORIENTED_EDGE('',*,*,#741,.F.);
#741 = EDGE_CURVE('',#717,#742,#744,.T.);
#742 = VERTEX_POINT('',#743);
#743 = CARTESIAN_POINT('',(0.47,0.18,0.));
#744 = LINE('',#745,#746);
#745 = CARTESIAN_POINT('',(0.47,0.39,0.));
#746 = VECTOR('',#747,1.);
#747 = DIRECTION('',(0.,-1.,0.));
#748 = ORIENTED_EDGE('',*,*,#727,.T.);
#749 = ORIENTED_EDGE('',*,*,#246,.T.);
#750 = ORIENTED_EDGE('',*,*,#751,.F.);
#751 = EDGE_CURVE('',#742,#239,#752,.T.);
#752 = LINE('',#753,#754);
#753 = CARTESIAN_POINT('',(0.47,0.18,0.));
#754 = VECTOR('',#755,1.);
#755 = DIRECTION('',(0.,0.,1.));
#756 = PLANE('',#757);
#757 = AXIS2_PLACEMENT_3D('',#758,#759,#760);
#758 = CARTESIAN_POINT('',(0.47,0.39,0.));
#759 = DIRECTION('',(1.,0.,0.));
#760 = DIRECTION('',(0.,-1.,0.));
#761 = ADVANCED_FACE('',(#762),#780,.T.);
#762 = FACE_BOUND('',#763,.T.);
#763 = EDGE_LOOP('',(#764,#772,#773,#774));
#764 = ORIENTED_EDGE('',*,*,#765,.F.);
#765 = EDGE_CURVE('',#742,#766,#768,.T.);
#766 = VERTEX_POINT('',#767);
#767 = CARTESIAN_POINT('',(0.18,0.18,0.));
#768 = LINE('',#769,#770);
#769 = CARTESIAN_POINT('',(0.47,0.18,0.));
#770 = VECTOR('',#771,1.);
#771 = DIRECTION('',(-1.,0.,0.));
#772 = ORIENTED_EDGE('',*,*,#751,.T.);
#773 = ORIENTED_EDGE('',*,*,#238,.T.);
#774 = ORIENTED_EDGE('',*,*,#775,.F.);
#775 = EDGE_CURVE('',#766,#231,#776,.T.);
#776 = LINE('',#777,#778);
#777 = CARTESIAN_POINT('',(0.18,0.18,0.));
#778 = VECTOR('',#779,1.);
#779 = DIRECTION('',(0.,0.,1.));
#780 = PLANE('',#781);
#781 = AXIS2_PLACEMENT_3D('',#782,#783,#784);
#782 = CARTESIAN_POINT('',(0.47,0.18,0.));
#783 = DIRECTION('',(0.,-1.,0.));
#784 = DIRECTION('',(-1.,0.,0.));
#785 = ADVANCED_FACE('',(#786),#797,.T.);
#786 = FACE_BOUND('',#787,.T.);
#787 = EDGE_LOOP('',(#788,#794,#795,#796));
#788 = ORIENTED_EDGE('',*,*,#789,.F.);
#789 = EDGE_CURVE('',#766,#686,#790,.T.);
#790 = LINE('',#791,#792);
#791 = CARTESIAN_POINT('',(0.18,0.18,0.));
#792 = VECTOR('',#793,1.);
#793 = DIRECTION('',(0.,1.,0.));
#794 = ORIENTED_EDGE('',*,*,#775,.T.);
#795 = ORIENTED_EDGE('',*,*,#230,.T.);
#796 = ORIENTED_EDGE('',*,*,#695,.F.);
#797 = PLANE('',#798);
#798 = AXIS2_PLACEMENT_3D('',#799,#800,#801);
#799 = CARTESIAN_POINT('',(0.18,0.18,0.));
#800 = DIRECTION('',(-1.,0.,0.));
#801 = DIRECTION('',(0.,1.,0.));
#802 = ADVANCED_FACE('',(#803),#828,.T.);
#803 = FACE_BOUND('',#804,.T.);
#804 = EDGE_LOOP('',(#805,#815,#821,#822));
#805 = ORIENTED_EDGE('',*,*,#806,.F.);
#806 = EDGE_CURVE('',#807,#809,#811,.T.);
#807 = VERTEX_POINT('',#808);
#808 = CARTESIAN_POINT('',(-0.47,0.18,0.));
#809 = VERTEX_POINT('',#810);
#810 = CARTESIAN_POINT('',(-0.47,0.39,0.));
#811 = LINE('',#812,#813);
#812 = CARTESIAN_POINT('',(-0.47,0.18,0.));
#813 = VECTOR('',#814,1.);
#814 = DIRECTION('',(2.22044604925E-16,1.,0.));
#815 = ORIENTED_EDGE('',*,*,#816,.T.);
#816 = EDGE_CURVE('',#807,#264,#817,.T.);
#817 = LINE('',#818,#819);
#818 = CARTESIAN_POINT('',(-0.47,0.18,0.));
#819 = VECTOR('',#820,1.);
#820 = DIRECTION('',(0.,0.,1.));
#821 = ORIENTED_EDGE('',*,*,#263,.T.);
#822 = ORIENTED_EDGE('',*,*,#823,.F.);
#823 = EDGE_CURVE('',#809,#266,#824,.T.);
#824 = LINE('',#825,#826);
#825 = CARTESIAN_POINT('',(-0.47,0.39,0.));
#826 = VECTOR('',#827,1.);
#827 = DIRECTION('',(0.,0.,1.));
#828 = PLANE('',#829);
#829 = AXIS2_PLACEMENT_3D('',#830,#831,#832);
#830 = CARTESIAN_POINT('',(-0.47,0.18,0.));
#831 = DIRECTION('',(-1.,2.22044604925E-16,0.));
#832 = DIRECTION('',(2.22044604925E-16,1.,0.));
#833 = ADVANCED_FACE('',(#834),#853,.F.);
#834 = FACE_BOUND('',#835,.T.);
#835 = EDGE_LOOP('',(#836,#845,#846,#847));
#836 = ORIENTED_EDGE('',*,*,#837,.F.);
#837 = EDGE_CURVE('',#809,#838,#840,.T.);
#838 = VERTEX_POINT('',#839);
#839 = CARTESIAN_POINT('',(-0.39,0.47,0.));
#840 = CIRCLE('',#841,8.E-02);
#841 = AXIS2_PLACEMENT_3D('',#842,#843,#844);
#842 = CARTESIAN_POINT('',(-0.47,0.47,0.));
#843 = DIRECTION('',(0.,-0.,1.));
#844 = DIRECTION('',(2.22044604925E-16,1.,0.));
#845 = ORIENTED_EDGE('',*,*,#823,.T.);
#846 = ORIENTED_EDGE('',*,*,#297,.F.);
#847 = ORIENTED_EDGE('',*,*,#848,.F.);
#848 = EDGE_CURVE('',#838,#290,#849,.T.);
#849 = LINE('',#850,#851);
#850 = CARTESIAN_POINT('',(-0.39,0.47,0.));
#851 = VECTOR('',#852,1.);
#852 = DIRECTION('',(0.,0.,1.));
#853 = CYLINDRICAL_SURFACE('',#854,8.E-02);
#854 = AXIS2_PLACEMENT_3D('',#855,#856,#857);
#855 = CARTESIAN_POINT('',(-0.47,0.47,0.));
#856 = DIRECTION('',(0.,-0.,-1.));
#857 = DIRECTION('',(2.22044604925E-16,1.,0.));
#858 = ADVANCED_FACE('',(#859),#877,.T.);
#859 = FACE_BOUND('',#860,.T.);
#860 = EDGE_LOOP('',(#861,#869,#870,#871));
#861 = ORIENTED_EDGE('',*,*,#862,.F.);
#862 = EDGE_CURVE('',#838,#863,#865,.T.);
#863 = VERTEX_POINT('',#864);
#864 = CARTESIAN_POINT('',(-0.18,0.47,0.));
#865 = LINE('',#866,#867);
#866 = CARTESIAN_POINT('',(-0.39,0.47,0.));
#867 = VECTOR('',#868,1.);
#868 = DIRECTION('',(1.,-2.22044604925E-16,0.));
#869 = ORIENTED_EDGE('',*,*,#848,.T.);
#870 = ORIENTED_EDGE('',*,*,#289,.T.);
#871 = ORIENTED_EDGE('',*,*,#872,.F.);
#872 = EDGE_CURVE('',#863,#282,#873,.T.);
#873 = LINE('',#874,#875);
#874 = CARTESIAN_POINT('',(-0.18,0.47,0.));
#875 = VECTOR('',#876,1.);
#876 = DIRECTION('',(0.,0.,1.));
#877 = PLANE('',#878);
#878 = AXIS2_PLACEMENT_3D('',#879,#880,#881);
#879 = CARTESIAN_POINT('',(-0.39,0.47,0.));
#880 = DIRECTION('',(2.22044604925E-16,1.,0.));
#881 = DIRECTION('',(1.,-2.22044604925E-16,0.));
#882 = ADVANCED_FACE('',(#883),#901,.T.);
#883 = FACE_BOUND('',#884,.T.);
#884 = EDGE_LOOP('',(#885,#893,#894,#895));
#885 = ORIENTED_EDGE('',*,*,#886,.F.);
#886 = EDGE_CURVE('',#863,#887,#889,.T.);
#887 = VERTEX_POINT('',#888);
#888 = CARTESIAN_POINT('',(-0.18,0.18,0.));
#889 = LINE('',#890,#891);
#890 = CARTESIAN_POINT('',(-0.18,0.47,0.));
#891 = VECTOR('',#892,1.);
#892 = DIRECTION('',(-2.22044604925E-16,-1.,0.));
#893 = ORIENTED_EDGE('',*,*,#872,.T.);
#894 = ORIENTED_EDGE('',*,*,#281,.T.);
#895 = ORIENTED_EDGE('',*,*,#896,.F.);
#896 = EDGE_CURVE('',#887,#274,#897,.T.);
#897 = LINE('',#898,#899);
#898 = CARTESIAN_POINT('',(-0.18,0.18,0.));
#899 = VECTOR('',#900,1.);
#900 = DIRECTION('',(0.,0.,1.));
#901 = PLANE('',#902);
#902 = AXIS2_PLACEMENT_3D('',#903,#904,#905);
#903 = CARTESIAN_POINT('',(-0.18,0.47,0.));
#904 = DIRECTION('',(1.,-2.22044604925E-16,0.));
#905 = DIRECTION('',(-2.22044604925E-16,-1.,0.));
#906 = ADVANCED_FACE('',(#907),#918,.T.);
#907 = FACE_BOUND('',#908,.T.);
#908 = EDGE_LOOP('',(#909,#915,#916,#917));
#909 = ORIENTED_EDGE('',*,*,#910,.F.);
#910 = EDGE_CURVE('',#887,#807,#911,.T.);
#911 = LINE('',#912,#913);
#912 = CARTESIAN_POINT('',(-0.18,0.18,0.));
#913 = VECTOR('',#914,1.);
#914 = DIRECTION('',(-1.,2.22044604925E-16,0.));
#915 = ORIENTED_EDGE('',*,*,#896,.T.);
#916 = ORIENTED_EDGE('',*,*,#273,.T.);
#917 = ORIENTED_EDGE('',*,*,#816,.F.);
#918 = PLANE('',#919);
#919 = AXIS2_PLACEMENT_3D('',#920,#921,#922);
#920 = CARTESIAN_POINT('',(-0.18,0.18,0.));
#921 = DIRECTION('',(-2.22044604925E-16,-1.,0.));
#922 = DIRECTION('',(-1.,2.22044604925E-16,0.));
#923 = ADVANCED_FACE('',(#924),#949,.T.);
#924 = FACE_BOUND('',#925,.T.);
#925 = EDGE_LOOP('',(#926,#927,#935,#943));
#926 = ORIENTED_EDGE('',*,*,#323,.F.);
#927 = ORIENTED_EDGE('',*,*,#928,.T.);
#928 = EDGE_CURVE('',#324,#929,#931,.T.);
#929 = VERTEX_POINT('',#930);
#930 = CARTESIAN_POINT('',(-0.1,-0.2,0.401));
#931 = LINE('',#932,#933);
#932 = CARTESIAN_POINT('',(-0.1,-0.2,0.301));
#933 = VECTOR('',#934,1.);
#934 = DIRECTION('',(0.,0.,1.));
#935 = ORIENTED_EDGE('',*,*,#936,.T.);
#936 = EDGE_CURVE('',#929,#937,#939,.T.);
#937 = VERTEX_POINT('',#938);
#938 = CARTESIAN_POINT('',(0.1,-0.2,0.401));
#939 = LINE('',#940,#941);
#940 = CARTESIAN_POINT('',(-0.1,-0.2,0.401));
#941 = VECTOR('',#942,1.);
#942 = DIRECTION('',(1.,0.,0.));
#943 = ORIENTED_EDGE('',*,*,#944,.F.);
#944 = EDGE_CURVE('',#326,#937,#945,.T.);
#945 = LINE('',#946,#947);
#946 = CARTESIAN_POINT('',(0.1,-0.2,0.301));
#947 = VECTOR('',#948,1.);
#948 = DIRECTION('',(0.,0.,1.));
#949 = PLANE('',#950);
#950 = AXIS2_PLACEMENT_3D('',#951,#952,#953);
#951 = CARTESIAN_POINT('',(-0.1,-0.2,0.301));
#952 = DIRECTION('',(0.,1.,0.));
#953 = DIRECTION('',(1.,0.,0.));
#954 = ADVANCED_FACE('',(#955),#973,.T.);
#955 = FACE_BOUND('',#956,.T.);
#956 = EDGE_LOOP('',(#957,#958,#959,#967));
#957 = ORIENTED_EDGE('',*,*,#349,.F.);
#958 = ORIENTED_EDGE('',*,*,#944,.T.);
#959 = ORIENTED_EDGE('',*,*,#960,.T.);
#960 = EDGE_CURVE('',#937,#961,#963,.T.);
#961 = VERTEX_POINT('',#962);
#962 = CARTESIAN_POINT('',(0.1,-0.4,0.401));
#963 = LINE('',#964,#965);
#964 = CARTESIAN_POINT('',(0.1,-0.2,0.401));
#965 = VECTOR('',#966,1.);
#966 = DIRECTION('',(0.,-1.,0.));
#967 = ORIENTED_EDGE('',*,*,#968,.F.);
#968 = EDGE_CURVE('',#342,#961,#969,.T.);
#969 = LINE('',#970,#971);
#970 = CARTESIAN_POINT('',(0.1,-0.4,0.301));
#971 = VECTOR('',#972,1.);
#972 = DIRECTION('',(0.,0.,1.));
#973 = PLANE('',#974);
#974 = AXIS2_PLACEMENT_3D('',#975,#976,#977);
#975 = CARTESIAN_POINT('',(0.1,-0.2,0.301));
#976 = DIRECTION('',(1.,0.,0.));
#977 = DIRECTION('',(0.,-1.,0.));
#978 = ADVANCED_FACE('',(#979),#997,.T.);
#979 = FACE_BOUND('',#980,.T.);
#980 = EDGE_LOOP('',(#981,#982,#983,#991));
#981 = ORIENTED_EDGE('',*,*,#341,.F.);
#982 = ORIENTED_EDGE('',*,*,#968,.T.);
#983 = ORIENTED_EDGE('',*,*,#984,.T.);
#984 = EDGE_CURVE('',#961,#985,#987,.T.);
#985 = VERTEX_POINT('',#986);
#986 = CARTESIAN_POINT('',(-0.1,-0.4,0.401));
#987 = LINE('',#988,#989);
#988 = CARTESIAN_POINT('',(0.1,-0.4,0.401));
#989 = VECTOR('',#990,1.);
#990 = DIRECTION('',(-1.,0.,0.));
#991 = ORIENTED_EDGE('',*,*,#992,.F.);
#992 = EDGE_CURVE('',#334,#985,#993,.T.);
#993 = LINE('',#994,#995);
#994 = CARTESIAN_POINT('',(-0.1,-0.4,0.301));
#995 = VECTOR('',#996,1.);
#996 = DIRECTION('',(0.,0.,1.));
#997 = PLANE('',#998);
#998 = AXIS2_PLACEMENT_3D('',#999,#1000,#1001);
#999 = CARTESIAN_POINT('',(0.1,-0.4,0.301));
#1000 = DIRECTION('',(0.,-1.,0.));
#1001 = DIRECTION('',(-1.,0.,0.));
#1002 = ADVANCED_FACE('',(#1003),#1014,.T.);
#1003 = FACE_BOUND('',#1004,.T.);
#1004 = EDGE_LOOP('',(#1005,#1006,#1007,#1013));
#1005 = ORIENTED_EDGE('',*,*,#333,.F.);
#1006 = ORIENTED_EDGE('',*,*,#992,.T.);
#1007 = ORIENTED_EDGE('',*,*,#1008,.T.);
#1008 = EDGE_CURVE('',#985,#929,#1009,.T.);
#1009 = LINE('',#1010,#1011);
#1010 = CARTESIAN_POINT('',(-0.1,-0.4,0.401));
#1011 = VECTOR('',#1012,1.);
#1012 = DIRECTION('',(0.,1.,0.));
#1013 = ORIENTED_EDGE('',*,*,#928,.F.);
#1014 = PLANE('',#1015);
#1015 = AXIS2_PLACEMENT_3D('',#1016,#1017,#1018);
#1016 = CARTESIAN_POINT('',(-0.1,-0.4,0.301));
#1017 = DIRECTION('',(-1.,0.,0.));
#1018 = DIRECTION('',(0.,1.,0.));
#1019 = ADVANCED_FACE('',(#1020),#1045,.T.);
#1020 = FACE_BOUND('',#1021,.T.);
#1021 = EDGE_LOOP('',(#1022,#1023,#1031,#1039));
#1022 = ORIENTED_EDGE('',*,*,#357,.F.);
#1023 = ORIENTED_EDGE('',*,*,#1024,.T.);
#1024 = EDGE_CURVE('',#358,#1025,#1027,.T.);
#1025 = VERTEX_POINT('',#1026);
#1026 = CARTESIAN_POINT('',(-0.1,0.1,0.401));
#1027 = LINE('',#1028,#1029);
#1028 = CARTESIAN_POINT('',(-0.1,0.1,0.301));
#1029 = VECTOR('',#1030,1.);
#1030 = DIRECTION('',(0.,0.,1.));
#1031 = ORIENTED_EDGE('',*,*,#1032,.T.);
#1032 = EDGE_CURVE('',#1025,#1033,#1035,.T.);
#1033 = VERTEX_POINT('',#1034);
#1034 = CARTESIAN_POINT('',(0.1,0.1,0.401));
#1035 = LINE('',#1036,#1037);
#1036 = CARTESIAN_POINT('',(-0.1,0.1,0.401));
#1037 = VECTOR('',#1038,1.);
#1038 = DIRECTION('',(1.,0.,0.));
#1039 = ORIENTED_EDGE('',*,*,#1040,.F.);
#1040 = EDGE_CURVE('',#360,#1033,#1041,.T.);
#1041 = LINE('',#1042,#1043);
#1042 = CARTESIAN_POINT('',(0.1,0.1,0.301));
#1043 = VECTOR('',#1044,1.);
#1044 = DIRECTION('',(0.,0.,1.));
#1045 = PLANE('',#1046);
#1046 = AXIS2_PLACEMENT_3D('',#1047,#1048,#1049);
#1047 = CARTESIAN_POINT('',(-0.1,0.1,0.301));
#1048 = DIRECTION('',(0.,1.,0.));
#1049 = DIRECTION('',(1.,0.,0.));
#1050 = ADVANCED_FACE('',(#1051),#1069,.T.);
#1051 = FACE_BOUND('',#1052,.T.);
#1052 = EDGE_LOOP('',(#1053,#1054,#1055,#1063));
#1053 = ORIENTED_EDGE('',*,*,#383,.F.);
#1054 = ORIENTED_EDGE('',*,*,#1040,.T.);
#1055 = ORIENTED_EDGE('',*,*,#1056,.T.);
#1056 = EDGE_CURVE('',#1033,#1057,#1059,.T.);
#1057 = VERTEX_POINT('',#1058);
#1058 = CARTESIAN_POINT('',(0.1,-1.E-01,0.401));
#1059 = LINE('',#1060,#1061);
#1060 = CARTESIAN_POINT('',(0.1,0.1,0.401));
#1061 = VECTOR('',#1062,1.);
#1062 = DIRECTION('',(0.,-1.,0.));
#1063 = ORIENTED_EDGE('',*,*,#1064,.F.);
#1064 = EDGE_CURVE('',#376,#1057,#1065,.T.);
#1065 = LINE('',#1066,#1067);
#1066 = CARTESIAN_POINT('',(0.1,-1.E-01,0.301));
#1067 = VECTOR('',#1068,1.);
#1068 = DIRECTION('',(0.,0.,1.));
#1069 = PLANE('',#1070);
#1070 = AXIS2_PLACEMENT_3D('',#1071,#1072,#1073);
#1071 = CARTESIAN_POINT('',(0.1,0.1,0.301));
#1072 = DIRECTION('',(1.,0.,0.));
#1073 = DIRECTION('',(0.,-1.,0.));
#1074 = ADVANCED_FACE('',(#1075),#1093,.T.);
#1075 = FACE_BOUND('',#1076,.T.);
#1076 = EDGE_LOOP('',(#1077,#1078,#1079,#1087));
#1077 = ORIENTED_EDGE('',*,*,#375,.F.);
#1078 = ORIENTED_EDGE('',*,*,#1064,.T.);
#1079 = ORIENTED_EDGE('',*,*,#1080,.T.);
#1080 = EDGE_CURVE('',#1057,#1081,#1083,.T.);
#1081 = VERTEX_POINT('',#1082);
#1082 = CARTESIAN_POINT('',(-0.1,-1.E-01,0.401));
#1083 = LINE('',#1084,#1085);
#1084 = CARTESIAN_POINT('',(0.1,-1.E-01,0.401));
#1085 = VECTOR('',#1086,1.);
#1086 = DIRECTION('',(-1.,0.,0.));
#1087 = ORIENTED_EDGE('',*,*,#1088,.F.);
#1088 = EDGE_CURVE('',#368,#1081,#1089,.T.);
#1089 = LINE('',#1090,#1091);
#1090 = CARTESIAN_POINT('',(-0.1,-1.E-01,0.301));
#1091 = VECTOR('',#1092,1.);
#1092 = DIRECTION('',(0.,0.,1.));
#1093 = PLANE('',#1094);
#1094 = AXIS2_PLACEMENT_3D('',#1095,#1096,#1097);
#1095 = CARTESIAN_POINT('',(0.1,-1.E-01,0.301));
#1096 = DIRECTION('',(0.,-1.,0.));
#1097 = DIRECTION('',(-1.,0.,0.));
#1098 = ADVANCED_FACE('',(#1099),#1110,.T.);
#1099 = FACE_BOUND('',#1100,.T.);
#1100 = EDGE_LOOP('',(#1101,#1102,#1103,#1109));
#1101 = ORIENTED_EDGE('',*,*,#367,.F.);
#1102 = ORIENTED_EDGE('',*,*,#1088,.T.);
#1103 = ORIENTED_EDGE('',*,*,#1104,.T.);
#1104 = EDGE_CURVE('',#1081,#1025,#1105,.T.);
#1105 = LINE('',#1106,#1107);
#1106 = CARTESIAN_POINT('',(-0.1,-1.E-01,0.401));
#1107 = VECTOR('',#1108,1.);
#1108 = DIRECTION('',(0.,1.,0.));
#1109 = ORIENTED_EDGE('',*,*,#1024,.F.);
#1110 = PLANE('',#1111);
#1111 = AXIS2_PLACEMENT_3D('',#1112,#1113,#1114);
#1112 = CARTESIAN_POINT('',(-0.1,-1.E-01,0.301));
#1113 = DIRECTION('',(-1.,0.,0.));
#1114 = DIRECTION('',(0.,1.,0.));
#1115 = ADVANCED_FACE('',(#1116),#1141,.T.);
#1116 = FACE_BOUND('',#1117,.T.);
#1117 = EDGE_LOOP('',(#1118,#1119,#1127,#1135));
#1118 = ORIENTED_EDGE('',*,*,#391,.F.);
#1119 = ORIENTED_EDGE('',*,*,#1120,.T.);
#1120 = EDGE_CURVE('',#392,#1121,#1123,.T.);
#1121 = VERTEX_POINT('',#1122);
#1122 = CARTESIAN_POINT('',(-0.1,0.4,0.401));
#1123 = LINE('',#1124,#1125);
#1124 = CARTESIAN_POINT('',(-0.1,0.4,0.301));
#1125 = VECTOR('',#1126,1.);
#1126 = DIRECTION('',(0.,0.,1.));
#1127 = ORIENTED_EDGE('',*,*,#1128,.T.);
#1128 = EDGE_CURVE('',#1121,#1129,#1131,.T.);
#1129 = VERTEX_POINT('',#1130);
#1130 = CARTESIAN_POINT('',(0.1,0.4,0.401));
#1131 = LINE('',#1132,#1133);
#1132 = CARTESIAN_POINT('',(-0.1,0.4,0.401));
#1133 = VECTOR('',#1134,1.);
#1134 = DIRECTION('',(1.,0.,0.));
#1135 = ORIENTED_EDGE('',*,*,#1136,.F.);
#1136 = EDGE_CURVE('',#394,#1129,#1137,.T.);
#1137 = LINE('',#1138,#1139);
#1138 = CARTESIAN_POINT('',(0.1,0.4,0.301));
#1139 = VECTOR('',#1140,1.);
#1140 = DIRECTION('',(0.,0.,1.));
#1141 = PLANE('',#1142);
#1142 = AXIS2_PLACEMENT_3D('',#1143,#1144,#1145);
#1143 = CARTESIAN_POINT('',(-0.1,0.4,0.301));
#1144 = DIRECTION('',(0.,1.,0.));
#1145 = DIRECTION('',(1.,0.,0.));
#1146 = ADVANCED_FACE('',(#1147),#1165,.T.);
#1147 = FACE_BOUND('',#1148,.T.);
#1148 = EDGE_LOOP('',(#1149,#1150,#1151,#1159));
#1149 = ORIENTED_EDGE('',*,*,#417,.F.);
#1150 = ORIENTED_EDGE('',*,*,#1136,.T.);
#1151 = ORIENTED_EDGE('',*,*,#1152,.T.);
#1152 = EDGE_CURVE('',#1129,#1153,#1155,.T.);
#1153 = VERTEX_POINT('',#1154);
#1154 = CARTESIAN_POINT('',(0.1,0.2,0.401));
#1155 = LINE('',#1156,#1157);
#1156 = CARTESIAN_POINT('',(0.1,0.4,0.401));
#1157 = VECTOR('',#1158,1.);
#1158 = DIRECTION('',(0.,-1.,0.));
#1159 = ORIENTED_EDGE('',*,*,#1160,.F.);
#1160 = EDGE_CURVE('',#410,#1153,#1161,.T.);
#1161 = LINE('',#1162,#1163);
#1162 = CARTESIAN_POINT('',(0.1,0.2,0.301));
#1163 = VECTOR('',#1164,1.);
#1164 = DIRECTION('',(0.,0.,1.));
#1165 = PLANE('',#1166);
#1166 = AXIS2_PLACEMENT_3D('',#1167,#1168,#1169);
#1167 = CARTESIAN_POINT('',(0.1,0.4,0.301));
#1168 = DIRECTION('',(1.,0.,0.));
#1169 = DIRECTION('',(0.,-1.,0.));
#1170 = ADVANCED_FACE('',(#1171),#1189,.T.);
#1171 = FACE_BOUND('',#1172,.T.);
#1172 = EDGE_LOOP('',(#1173,#1174,#1175,#1183));
#1173 = ORIENTED_EDGE('',*,*,#409,.F.);
#1174 = ORIENTED_EDGE('',*,*,#1160,.T.);
#1175 = ORIENTED_EDGE('',*,*,#1176,.T.);
#1176 = EDGE_CURVE('',#1153,#1177,#1179,.T.);
#1177 = VERTEX_POINT('',#1178);
#1178 = CARTESIAN_POINT('',(-0.1,0.2,0.401));
#1179 = LINE('',#1180,#1181);
#1180 = CARTESIAN_POINT('',(0.1,0.2,0.401));
#1181 = VECTOR('',#1182,1.);
#1182 = DIRECTION('',(-1.,0.,0.));
#1183 = ORIENTED_EDGE('',*,*,#1184,.F.);
#1184 = EDGE_CURVE('',#402,#1177,#1185,.T.);
#1185 = LINE('',#1186,#1187);
#1186 = CARTESIAN_POINT('',(-0.1,0.2,0.301));
#1187 = VECTOR('',#1188,1.);
#1188 = DIRECTION('',(0.,0.,1.));
#1189 = PLANE('',#1190);
#1190 = AXIS2_PLACEMENT_3D('',#1191,#1192,#1193);
#1191 = CARTESIAN_POINT('',(0.1,0.2,0.301));
#1192 = DIRECTION('',(0.,-1.,0.));
#1193 = DIRECTION('',(-1.,0.,0.));
#1194 = ADVANCED_FACE('',(#1195),#1206,.T.);
#1195 = FACE_BOUND('',#1196,.T.);
#1196 = EDGE_LOOP('',(#1197,#1198,#1199,#1205));
#1197 = ORIENTED_EDGE('',*,*,#401,.F.);
#1198 = ORIENTED_EDGE('',*,*,#1184,.T.);
#1199 = ORIENTED_EDGE('',*,*,#1200,.T.);
#1200 = EDGE_CURVE('',#1177,#1121,#1201,.T.);
#1201 = LINE('',#1202,#1203);
#1202 = CARTESIAN_POINT('',(-0.1,0.2,0.401));
#1203 = VECTOR('',#1204,1.);
#1204 = DIRECTION('',(0.,1.,0.));
#1205 = ORIENTED_EDGE('',*,*,#1120,.F.);
#1206 = PLANE('',#1207);
#1207 = AXIS2_PLACEMENT_3D('',#1208,#1209,#1210);
#1208 = CARTESIAN_POINT('',(-0.1,0.2,0.301));
#1209 = DIRECTION('',(-1.,0.,0.));
#1210 = DIRECTION('',(0.,1.,0.));
#1211 = ADVANCED_FACE('',(#1212),#1219,.T.);
#1212 = FACE_BOUND('',#1213,.T.);
#1213 = EDGE_LOOP('',(#1214,#1215,#1216,#1217,#1218));
#1214 = ORIENTED_EDGE('',*,*,#443,.T.);
#1215 = ORIENTED_EDGE('',*,*,#474,.T.);
#1216 = ORIENTED_EDGE('',*,*,#499,.T.);
#1217 = ORIENTED_EDGE('',*,*,#523,.T.);
#1218 = ORIENTED_EDGE('',*,*,#547,.T.);
#1219 = PLANE('',#1220);
#1220 = AXIS2_PLACEMENT_3D('',#1221,#1222,#1223);
#1221 = CARTESIAN_POINT('',(0.317734496568,-0.317734496568,0.));
#1222 = DIRECTION('',(0.,0.,-1.));
#1223 = DIRECTION('',(2.22044604925E-16,1.,0.));
#1224 = ADVANCED_FACE('',(#1225),#1232,.T.);
#1225 = FACE_BOUND('',#1226,.T.);
#1226 = EDGE_LOOP('',(#1227,#1228,#1229,#1230,#1231));
#1227 = ORIENTED_EDGE('',*,*,#564,.T.);
#1228 = ORIENTED_EDGE('',*,*,#595,.T.);
#1229 = ORIENTED_EDGE('',*,*,#620,.T.);
#1230 = ORIENTED_EDGE('',*,*,#644,.T.);
#1231 = ORIENTED_EDGE('',*,*,#668,.T.);
#1232 = PLANE('',#1233);
#1233 = AXIS2_PLACEMENT_3D('',#1234,#1235,#1236);
#1234 = CARTESIAN_POINT('',(-0.317734496568,-0.317734496568,0.));
#1235 = DIRECTION('',(0.,0.,-1.));
#1236 = DIRECTION('',(1.,-1.224646799147E-16,0.));
#1237 = ADVANCED_FACE('',(#1238),#1245,.T.);
#1238 = FACE_BOUND('',#1239,.T.);
#1239 = EDGE_LOOP('',(#1240,#1241,#1242,#1243,#1244));
#1240 = ORIENTED_EDGE('',*,*,#685,.T.);
#1241 = ORIENTED_EDGE('',*,*,#716,.T.);
#1242 = ORIENTED_EDGE('',*,*,#741,.T.);
#1243 = ORIENTED_EDGE('',*,*,#765,.T.);
#1244 = ORIENTED_EDGE('',*,*,#789,.T.);
#1245 = PLANE('',#1246);
#1246 = AXIS2_PLACEMENT_3D('',#1247,#1248,#1249);
#1247 = CARTESIAN_POINT('',(0.317734496568,0.317734496568,0.));
#1248 = DIRECTION('',(-0.,-0.,-1.));
#1249 = DIRECTION('',(-1.,0.,0.));
#1250 = ADVANCED_FACE('',(#1251),#1258,.T.);
#1251 = FACE_BOUND('',#1252,.T.);
#1252 = EDGE_LOOP('',(#1253,#1254,#1255,#1256,#1257));
#1253 = ORIENTED_EDGE('',*,*,#806,.T.);
#1254 = ORIENTED_EDGE('',*,*,#837,.T.);
#1255 = ORIENTED_EDGE('',*,*,#862,.T.);
#1256 = ORIENTED_EDGE('',*,*,#886,.T.);
#1257 = ORIENTED_EDGE('',*,*,#910,.T.);
#1258 = PLANE('',#1259);
#1259 = AXIS2_PLACEMENT_3D('',#1260,#1261,#1262);
#1260 = CARTESIAN_POINT('',(-0.317734496568,0.317734496568,0.));
#1261 = DIRECTION('',(0.,-0.,-1.));
#1262 = DIRECTION('',(-2.22044604925E-16,-1.,0.));
#1263 = ADVANCED_FACE('',(#1264),#1270,.F.);
#1264 = FACE_BOUND('',#1265,.F.);
#1265 = EDGE_LOOP('',(#1266,#1267,#1268,#1269));
#1266 = ORIENTED_EDGE('',*,*,#936,.T.);
#1267 = ORIENTED_EDGE('',*,*,#960,.T.);
#1268 = ORIENTED_EDGE('',*,*,#984,.T.);
#1269 = ORIENTED_EDGE('',*,*,#1008,.T.);
#1270 = PLANE('',#1271);
#1271 = AXIS2_PLACEMENT_3D('',#1272,#1273,#1274);
#1272 = CARTESIAN_POINT('',(0.,-0.3,0.401));
#1273 = DIRECTION('',(-0.,-0.,-1.));
#1274 = DIRECTION('',(-1.,0.,0.));
#1275 = ADVANCED_FACE('',(#1276),#1282,.F.);
#1276 = FACE_BOUND('',#1277,.F.);
#1277 = EDGE_LOOP('',(#1278,#1279,#1280,#1281));
#1278 = ORIENTED_EDGE('',*,*,#1032,.T.);
#1279 = ORIENTED_EDGE('',*,*,#1056,.T.);
#1280 = ORIENTED_EDGE('',*,*,#1080,.T.);
#1281 = ORIENTED_EDGE('',*,*,#1104,.T.);
#1282 = PLANE('',#1283);
#1283 = AXIS2_PLACEMENT_3D('',#1284,#1285,#1286);
#1284 = CARTESIAN_POINT('',(0.,6.505213034913E-18,0.401));
#1285 = DIRECTION('',(-0.,-0.,-1.));
#1286 = DIRECTION('',(-1.,0.,0.));
#1287 = ADVANCED_FACE('',(#1288),#1294,.F.);
#1288 = FACE_BOUND('',#1289,.F.);
#1289 = EDGE_LOOP('',(#1290,#1291,#1292,#1293));
#1290 = ORIENTED_EDGE('',*,*,#1128,.T.);
#1291 = ORIENTED_EDGE('',*,*,#1152,.T.);
#1292 = ORIENTED_EDGE('',*,*,#1176,.T.);
#1293 = ORIENTED_EDGE('',*,*,#1200,.T.);
#1294 = PLANE('',#1295);
#1295 = AXIS2_PLACEMENT_3D('',#1296,#1297,#1298);
#1296 = CARTESIAN_POINT('',(0.,0.3,0.401));
#1297 = DIRECTION('',(-0.,-0.,-1.));
#1298 = DIRECTION('',(-1.,0.,0.));
#1299 = MANIFOLD_SOLID_BREP('',#1300);
#1300 = CLOSED_SHELL('',(#1301,#1341,#1372,#1403,#1454,#1471,#1483,#1514
    ,#1538,#1562,#1579));
#1301 = ADVANCED_FACE('',(#1302),#1336,.T.);
#1302 = FACE_BOUND('',#1303,.T.);
#1303 = EDGE_LOOP('',(#1304,#1314,#1322,#1330));
#1304 = ORIENTED_EDGE('',*,*,#1305,.T.);
#1305 = EDGE_CURVE('',#1306,#1308,#1310,.T.);
#1306 = VERTEX_POINT('',#1307);
#1307 = CARTESIAN_POINT('',(-0.5,0.5,0.306));
#1308 = VERTEX_POINT('',#1309);
#1309 = CARTESIAN_POINT('',(-0.5,0.5,0.656));
#1310 = LINE('',#1311,#1312);
#1311 = CARTESIAN_POINT('',(-0.5,0.5,0.306));
#1312 = VECTOR('',#1313,1.);
#1313 = DIRECTION('',(0.,0.,1.));
#1314 = ORIENTED_EDGE('',*,*,#1315,.T.);
#1315 = EDGE_CURVE('',#1308,#1316,#1318,.T.);
#1316 = VERTEX_POINT('',#1317);
#1317 = CARTESIAN_POINT('',(0.5,0.5,0.656));
#1318 = LINE('',#1319,#1320);
#1319 = CARTESIAN_POINT('',(-0.5,0.5,0.656));
#1320 = VECTOR('',#1321,1.);
#1321 = DIRECTION('',(1.,0.,0.));
#1322 = ORIENTED_EDGE('',*,*,#1323,.F.);
#1323 = EDGE_CURVE('',#1324,#1316,#1326,.T.);
#1324 = VERTEX_POINT('',#1325);
#1325 = CARTESIAN_POINT('',(0.5,0.5,0.306));
#1326 = LINE('',#1327,#1328);
#1327 = CARTESIAN_POINT('',(0.5,0.5,0.306));
#1328 = VECTOR('',#1329,1.);
#1329 = DIRECTION('',(0.,0.,1.));
#1330 = ORIENTED_EDGE('',*,*,#1331,.F.);
#1331 = EDGE_CURVE('',#1306,#1324,#1332,.T.);
#1332 = LINE('',#1333,#1334);
#1333 = CARTESIAN_POINT('',(-0.5,0.5,0.306));
#1334 = VECTOR('',#1335,1.);
#1335 = DIRECTION('',(1.,0.,0.));
#1336 = PLANE('',#1337);
#1337 = AXIS2_PLACEMENT_3D('',#1338,#1339,#1340);
#1338 = CARTESIAN_POINT('',(-0.5,0.5,0.306));
#1339 = DIRECTION('',(0.,1.,0.));
#1340 = DIRECTION('',(1.,0.,0.));
#1341 = ADVANCED_FACE('',(#1342),#1367,.T.);
#1342 = FACE_BOUND('',#1343,.T.);
#1343 = EDGE_LOOP('',(#1344,#1354,#1360,#1361));
#1344 = ORIENTED_EDGE('',*,*,#1345,.T.);
#1345 = EDGE_CURVE('',#1346,#1348,#1350,.T.);
#1346 = VERTEX_POINT('',#1347);
#1347 = CARTESIAN_POINT('',(-0.5,-0.5,0.306));
#1348 = VERTEX_POINT('',#1349);
#1349 = CARTESIAN_POINT('',(-0.5,-0.5,0.656));
#1350 = LINE('',#1351,#1352);
#1351 = CARTESIAN_POINT('',(-0.5,-0.5,0.306));
#1352 = VECTOR('',#1353,1.);
#1353 = DIRECTION('',(0.,0.,1.));
#1354 = ORIENTED_EDGE('',*,*,#1355,.T.);
#1355 = EDGE_CURVE('',#1348,#1308,#1356,.T.);
#1356 = LINE('',#1357,#1358);
#1357 = CARTESIAN_POINT('',(-0.5,-0.5,0.656));
#1358 = VECTOR('',#1359,1.);
#1359 = DIRECTION('',(0.,1.,0.));
#1360 = ORIENTED_EDGE('',*,*,#1305,.F.);
#1361 = ORIENTED_EDGE('',*,*,#1362,.F.);
#1362 = EDGE_CURVE('',#1346,#1306,#1363,.T.);
#1363 = LINE('',#1364,#1365);
#1364 = CARTESIAN_POINT('',(-0.5,-0.5,0.306));
#1365 = VECTOR('',#1366,1.);
#1366 = DIRECTION('',(0.,1.,0.));
#1367 = PLANE('',#1368);
#1368 = AXIS2_PLACEMENT_3D('',#1369,#1370,#1371);
#1369 = CARTESIAN_POINT('',(-0.5,-0.5,0.306));
#1370 = DIRECTION('',(-1.,0.,0.));
#1371 = DIRECTION('',(0.,1.,0.));
#1372 = ADVANCED_FACE('',(#1373),#1398,.T.);
#1373 = FACE_BOUND('',#1374,.T.);
#1374 = EDGE_LOOP('',(#1375,#1376,#1384,#1392));
#1375 = ORIENTED_EDGE('',*,*,#1323,.T.);
#1376 = ORIENTED_EDGE('',*,*,#1377,.T.);
#1377 = EDGE_CURVE('',#1316,#1378,#1380,.T.);
#1378 = VERTEX_POINT('',#1379);
#1379 = CARTESIAN_POINT('',(0.5,-0.5,0.656));
#1380 = LINE('',#1381,#1382);
#1381 = CARTESIAN_POINT('',(0.5,0.5,0.656));
#1382 = VECTOR('',#1383,1.);
#1383 = DIRECTION('',(0.,-1.,0.));
#1384 = ORIENTED_EDGE('',*,*,#1385,.F.);
#1385 = EDGE_CURVE('',#1386,#1378,#1388,.T.);
#1386 = VERTEX_POINT('',#1387);
#1387 = CARTESIAN_POINT('',(0.5,-0.5,0.306));
#1388 = LINE('',#1389,#1390);
#1389 = CARTESIAN_POINT('',(0.5,-0.5,0.306));
#1390 = VECTOR('',#1391,1.);
#1391 = DIRECTION('',(0.,0.,1.));
#1392 = ORIENTED_EDGE('',*,*,#1393,.F.);
#1393 = EDGE_CURVE('',#1324,#1386,#1394,.T.);
#1394 = LINE('',#1395,#1396);
#1395 = CARTESIAN_POINT('',(0.5,0.5,0.306));
#1396 = VECTOR('',#1397,1.);
#1397 = DIRECTION('',(0.,-1.,0.));
#1398 = PLANE('',#1399);
#1399 = AXIS2_PLACEMENT_3D('',#1400,#1401,#1402);
#1400 = CARTESIAN_POINT('',(0.5,0.5,0.306));
#1401 = DIRECTION('',(1.,0.,0.));
#1402 = DIRECTION('',(0.,-1.,0.));
#1403 = ADVANCED_FACE('',(#1404,#1415),#1449,.F.);
#1404 = FACE_BOUND('',#1405,.F.);
#1405 = EDGE_LOOP('',(#1406,#1407,#1408,#1414));
#1406 = ORIENTED_EDGE('',*,*,#1331,.F.);
#1407 = ORIENTED_EDGE('',*,*,#1362,.F.);
#1408 = ORIENTED_EDGE('',*,*,#1409,.F.);
#1409 = EDGE_CURVE('',#1386,#1346,#1410,.T.);
#1410 = LINE('',#1411,#1412);
#1411 = CARTESIAN_POINT('',(0.5,-0.5,0.306));
#1412 = VECTOR('',#1413,1.);
#1413 = DIRECTION('',(-1.,0.,0.));
#1414 = ORIENTED_EDGE('',*,*,#1393,.F.);
#1415 = FACE_BOUND('',#1416,.F.);
#1416 = EDGE_LOOP('',(#1417,#1427,#1435,#1443));
#1417 = ORIENTED_EDGE('',*,*,#1418,.T.);
#1418 = EDGE_CURVE('',#1419,#1421,#1423,.T.);
#1419 = VERTEX_POINT('',#1420);
#1420 = CARTESIAN_POINT('',(-0.11,-0.41,0.306));
#1421 = VERTEX_POINT('',#1422);
#1422 = CARTESIAN_POINT('',(-0.11,0.41,0.306));
#1423 = LINE('',#1424,#1425);
#1424 = CARTESIAN_POINT('',(-0.11,-0.41,0.306));
#1425 = VECTOR('',#1426,1.);
#1426 = DIRECTION('',(0.,1.,0.));
#1427 = ORIENTED_EDGE('',*,*,#1428,.T.);
#1428 = EDGE_CURVE('',#1421,#1429,#1431,.T.);
#1429 = VERTEX_POINT('',#1430);
#1430 = CARTESIAN_POINT('',(0.11,0.41,0.306));
#1431 = LINE('',#1432,#1433);
#1432 = CARTESIAN_POINT('',(-0.11,0.41,0.306));
#1433 = VECTOR('',#1434,1.);
#1434 = DIRECTION('',(1.,0.,0.));
#1435 = ORIENTED_EDGE('',*,*,#1436,.T.);
#1436 = EDGE_CURVE('',#1429,#1437,#1439,.T.);
#1437 = VERTEX_POINT('',#1438);
#1438 = CARTESIAN_POINT('',(0.11,-0.41,0.306));
#1439 = LINE('',#1440,#1441);
#1440 = CARTESIAN_POINT('',(0.11,0.41,0.306));
#1441 = VECTOR('',#1442,1.);
#1442 = DIRECTION('',(0.,-1.,0.));
#1443 = ORIENTED_EDGE('',*,*,#1444,.T.);
#1444 = EDGE_CURVE('',#1437,#1419,#1445,.T.);
#1445 = LINE('',#1446,#1447);
#1446 = CARTESIAN_POINT('',(0.11,-0.41,0.306));
#1447 = VECTOR('',#1448,1.);
#1448 = DIRECTION('',(-1.,0.,0.));
#1449 = PLANE('',#1450);
#1450 = AXIS2_PLACEMENT_3D('',#1451,#1452,#1453);
#1451 = CARTESIAN_POINT('',(0.,0.,0.306));
#1452 = DIRECTION('',(0.,0.,1.));
#1453 = DIRECTION('',(1.,0.,0.));
#1454 = ADVANCED_FACE('',(#1455),#1466,.T.);
#1455 = FACE_BOUND('',#1456,.F.);
#1456 = EDGE_LOOP('',(#1457,#1458,#1459,#1465));
#1457 = ORIENTED_EDGE('',*,*,#1315,.T.);
#1458 = ORIENTED_EDGE('',*,*,#1377,.T.);
#1459 = ORIENTED_EDGE('',*,*,#1460,.T.);
#1460 = EDGE_CURVE('',#1378,#1348,#1461,.T.);
#1461 = LINE('',#1462,#1463);
#1462 = CARTESIAN_POINT('',(0.5,-0.5,0.656));
#1463 = VECTOR('',#1464,1.);
#1464 = DIRECTION('',(-1.,0.,0.));
#1465 = ORIENTED_EDGE('',*,*,#1355,.T.);
#1466 = PLANE('',#1467);
#1467 = AXIS2_PLACEMENT_3D('',#1468,#1469,#1470);
#1468 = CARTESIAN_POINT('',(0.,0.,0.656));
#1469 = DIRECTION('',(0.,0.,1.));
#1470 = DIRECTION('',(1.,0.,0.));
#1471 = ADVANCED_FACE('',(#1472),#1478,.T.);
#1472 = FACE_BOUND('',#1473,.T.);
#1473 = EDGE_LOOP('',(#1474,#1475,#1476,#1477));
#1474 = ORIENTED_EDGE('',*,*,#1385,.T.);
#1475 = ORIENTED_EDGE('',*,*,#1460,.T.);
#1476 = ORIENTED_EDGE('',*,*,#1345,.F.);
#1477 = ORIENTED_EDGE('',*,*,#1409,.F.);
#1478 = PLANE('',#1479);
#1479 = AXIS2_PLACEMENT_3D('',#1480,#1481,#1482);
#1480 = CARTESIAN_POINT('',(0.5,-0.5,0.306));
#1481 = DIRECTION('',(0.,-1.,0.));
#1482 = DIRECTION('',(-1.,0.,0.));
#1483 = ADVANCED_FACE('',(#1484),#1509,.F.);
#1484 = FACE_BOUND('',#1485,.F.);
#1485 = EDGE_LOOP('',(#1486,#1494,#1502,#1508));
#1486 = ORIENTED_EDGE('',*,*,#1487,.T.);
#1487 = EDGE_CURVE('',#1419,#1488,#1490,.T.);
#1488 = VERTEX_POINT('',#1489);
#1489 = CARTESIAN_POINT('',(-0.11,-0.41,0.406));
#1490 = LINE('',#1491,#1492);
#1491 = CARTESIAN_POINT('',(-0.11,-0.41,0.306));
#1492 = VECTOR('',#1493,1.);
#1493 = DIRECTION('',(0.,0.,1.));
#1494 = ORIENTED_EDGE('',*,*,#1495,.T.);
#1495 = EDGE_CURVE('',#1488,#1496,#1498,.T.);
#1496 = VERTEX_POINT('',#1497);
#1497 = CARTESIAN_POINT('',(-0.11,0.41,0.406));
#1498 = LINE('',#1499,#1500);
#1499 = CARTESIAN_POINT('',(-0.11,-0.41,0.406));
#1500 = VECTOR('',#1501,1.);
#1501 = DIRECTION('',(0.,1.,0.));
#1502 = ORIENTED_EDGE('',*,*,#1503,.F.);
#1503 = EDGE_CURVE('',#1421,#1496,#1504,.T.);
#1504 = LINE('',#1505,#1506);
#1505 = CARTESIAN_POINT('',(-0.11,0.41,0.306));
#1506 = VECTOR('',#1507,1.);
#1507 = DIRECTION('',(0.,0.,1.));
#1508 = ORIENTED_EDGE('',*,*,#1418,.F.);
#1509 = PLANE('',#1510);
#1510 = AXIS2_PLACEMENT_3D('',#1511,#1512,#1513);
#1511 = CARTESIAN_POINT('',(-0.11,-0.41,0.306));
#1512 = DIRECTION('',(-1.,0.,0.));
#1513 = DIRECTION('',(0.,1.,0.));
#1514 = ADVANCED_FACE('',(#1515),#1533,.F.);
#1515 = FACE_BOUND('',#1516,.F.);
#1516 = EDGE_LOOP('',(#1517,#1525,#1531,#1532));
#1517 = ORIENTED_EDGE('',*,*,#1518,.T.);
#1518 = EDGE_CURVE('',#1437,#1519,#1521,.T.);
#1519 = VERTEX_POINT('',#1520);
#1520 = CARTESIAN_POINT('',(0.11,-0.41,0.406));
#1521 = LINE('',#1522,#1523);
#1522 = CARTESIAN_POINT('',(0.11,-0.41,0.306));
#1523 = VECTOR('',#1524,1.);
#1524 = DIRECTION('',(0.,0.,1.));
#1525 = ORIENTED_EDGE('',*,*,#1526,.T.);
#1526 = EDGE_CURVE('',#1519,#1488,#1527,.T.);
#1527 = LINE('',#1528,#1529);
#1528 = CARTESIAN_POINT('',(0.11,-0.41,0.406));
#1529 = VECTOR('',#1530,1.);
#1530 = DIRECTION('',(-1.,0.,0.));
#1531 = ORIENTED_EDGE('',*,*,#1487,.F.);
#1532 = ORIENTED_EDGE('',*,*,#1444,.F.);
#1533 = PLANE('',#1534);
#1534 = AXIS2_PLACEMENT_3D('',#1535,#1536,#1537);
#1535 = CARTESIAN_POINT('',(0.11,-0.41,0.306));
#1536 = DIRECTION('',(0.,-1.,0.));
#1537 = DIRECTION('',(-1.,0.,0.));
#1538 = ADVANCED_FACE('',(#1539),#1557,.F.);
#1539 = FACE_BOUND('',#1540,.F.);
#1540 = EDGE_LOOP('',(#1541,#1549,#1555,#1556));
#1541 = ORIENTED_EDGE('',*,*,#1542,.T.);
#1542 = EDGE_CURVE('',#1429,#1543,#1545,.T.);
#1543 = VERTEX_POINT('',#1544);
#1544 = CARTESIAN_POINT('',(0.11,0.41,0.406));
#1545 = LINE('',#1546,#1547);
#1546 = CARTESIAN_POINT('',(0.11,0.41,0.306));
#1547 = VECTOR('',#1548,1.);
#1548 = DIRECTION('',(0.,0.,1.));
#1549 = ORIENTED_EDGE('',*,*,#1550,.T.);
#1550 = EDGE_CURVE('',#1543,#1519,#1551,.T.);
#1551 = LINE('',#1552,#1553);
#1552 = CARTESIAN_POINT('',(0.11,0.41,0.406));
#1553 = VECTOR('',#1554,1.);
#1554 = DIRECTION('',(0.,-1.,0.));
#1555 = ORIENTED_EDGE('',*,*,#1518,.F.);
#1556 = ORIENTED_EDGE('',*,*,#1436,.F.);
#1557 = PLANE('',#1558);
#1558 = AXIS2_PLACEMENT_3D('',#1559,#1560,#1561);
#1559 = CARTESIAN_POINT('',(0.11,0.41,0.306));
#1560 = DIRECTION('',(1.,0.,0.));
#1561 = DIRECTION('',(0.,-1.,0.));
#1562 = ADVANCED_FACE('',(#1563),#1574,.F.);
#1563 = FACE_BOUND('',#1564,.F.);
#1564 = EDGE_LOOP('',(#1565,#1566,#1572,#1573));
#1565 = ORIENTED_EDGE('',*,*,#1503,.T.);
#1566 = ORIENTED_EDGE('',*,*,#1567,.T.);
#1567 = EDGE_CURVE('',#1496,#1543,#1568,.T.);
#1568 = LINE('',#1569,#1570);
#1569 = CARTESIAN_POINT('',(-0.11,0.41,0.406));
#1570 = VECTOR('',#1571,1.);
#1571 = DIRECTION('',(1.,0.,0.));
#1572 = ORIENTED_EDGE('',*,*,#1542,.F.);
#1573 = ORIENTED_EDGE('',*,*,#1428,.F.);
#1574 = PLANE('',#1575);
#1575 = AXIS2_PLACEMENT_3D('',#1576,#1577,#1578);
#1576 = CARTESIAN_POINT('',(-0.11,0.41,0.306));
#1577 = DIRECTION('',(0.,1.,0.));
#1578 = DIRECTION('',(1.,0.,0.));
#1579 = ADVANCED_FACE('',(#1580),#1586,.T.);
#1580 = FACE_BOUND('',#1581,.T.);
#1581 = EDGE_LOOP('',(#1582,#1583,#1584,#1585));
#1582 = ORIENTED_EDGE('',*,*,#1567,.T.);
#1583 = ORIENTED_EDGE('',*,*,#1550,.T.);
#1584 = ORIENTED_EDGE('',*,*,#1526,.T.);
#1585 = ORIENTED_EDGE('',*,*,#1495,.T.);
#1586 = PLANE('',#1587);
#1587 = AXIS2_PLACEMENT_3D('',#1588,#1589,#1590);
#1588 = CARTESIAN_POINT('',(0.,0.,0.406));
#1589 = DIRECTION('',(-0.,-0.,-1.));
#1590 = DIRECTION('',(-1.,0.,0.));
#1591 = ( GEOMETRIC_REPRESENTATION_CONTEXT(3) 
GLOBAL_UNCERTAINTY_ASSIGNED_CONTEXT((#1595)) 
GLOBAL_UNIT_ASSIGNED_CONTEXT((#1592,#1593,#1594)) REPRESENTATION_CONTEXT
('Context #1','3D Context with UNIT and UNCERTAINTY') );
#1592 = ( LENGTH_UNIT() NAMED_UNIT(*) SI_UNIT(.MILLI.,.METRE.) );
#1593 = ( NAMED_UNIT(*) PLANE_ANGLE_UNIT() SI_UNIT($,.RADIAN.) );
#1594 = ( NAMED_UNIT(*) SI_UNIT($,.STERADIAN.) SOLID_ANGLE_UNIT() );
#1595 = UNCERTAINTY_MEASURE_WITH_UNIT(LENGTH_MEASURE(1.E-07),#1592,
  'distance_accuracy_value','confusion accuracy');
#1596 = PRODUCT_RELATED_PRODUCT_CATEGORY('part',$,(#7));
#1597 = MECHANICAL_DESIGN_GEOMETRIC_PRESENTATION_REPRESENTATION('',(
    #1598,#1609,#1617,#1624,#1631,#1638,#1645,#1652,#1660,#1667,#1674,
    #1681,#1688,#1695,#1702,#1709,#1716,#1723,#1730,#1737,#1744,#1751,
    #1758,#1765,#1772,#1779,#1786,#1793,#1803,#1812,#1821,#1830,#1840,
    #1849,#1858,#1867,#1877,#1886,#1895,#1904,#1911,#1918,#1925,#1932,
    #1941,#1950,#1959,#1968,#1978,#1987,#1996,#2005,#2014,#2023,#2032,
    #2041,#2050,#2059),#1591);
#1598 = STYLED_ITEM('color',(#1599),#15);
#1599 = PRESENTATION_STYLE_ASSIGNMENT((#1600,#1606));
#1600 = SURFACE_STYLE_USAGE(.BOTH.,#1601);
#1601 = SURFACE_SIDE_STYLE('',(#1602));
#1602 = SURFACE_STYLE_FILL_AREA(#1603);
#1603 = FILL_AREA_STYLE('',(#1604));
#1604 = FILL_AREA_STYLE_COLOUR('',#1605);
#1605 = COLOUR_RGB('',0.283957752667,0.696711785974,0.911967213875);
#1606 = CURVE_STYLE('',#1607,POSITIVE_LENGTH_MEASURE(0.1),#1608);
#1607 = DRAUGHTING_PRE_DEFINED_CURVE_FONT('continuous');
#1608 = COLOUR_RGB('',9.803921802644E-02,9.803921802644E-02,
  9.803921802644E-02);
#1609 = OVER_RIDING_STYLED_ITEM('overriding color',(#1610),#17,#1598);
#1610 = PRESENTATION_STYLE_ASSIGNMENT((#1611));
#1611 = SURFACE_STYLE_USAGE(.BOTH.,#1612);
#1612 = SURFACE_SIDE_STYLE('',(#1613));
#1613 = SURFACE_STYLE_FILL_AREA(#1614);
#1614 = FILL_AREA_STYLE('',(#1615));
#1615 = FILL_AREA_STYLE_COLOUR('',#1616);
#1616 = COLOUR_RGB('',0.1599999992,0.1599999992,0.1599999992);
#1617 = OVER_RIDING_STYLED_ITEM('overriding color',(#1618),#57,#1598);
#1618 = PRESENTATION_STYLE_ASSIGNMENT((#1619));
#1619 = SURFACE_STYLE_USAGE(.BOTH.,#1620);
#1620 = SURFACE_SIDE_STYLE('',(#1621));
#1621 = SURFACE_STYLE_FILL_AREA(#1622);
#1622 = FILL_AREA_STYLE('',(#1623));
#1623 = FILL_AREA_STYLE_COLOUR('',#1616);
#1624 = OVER_RIDING_STYLED_ITEM('overriding color',(#1625),#88,#1598);
#1625 = PRESENTATION_STYLE_ASSIGNMENT((#1626));
#1626 = SURFACE_STYLE_USAGE(.BOTH.,#1627);
#1627 = SURFACE_SIDE_STYLE('',(#1628));
#1628 = SURFACE_STYLE_FILL_AREA(#1629);
#1629 = FILL_AREA_STYLE('',(#1630));
#1630 = FILL_AREA_STYLE_COLOUR('',#1616);
#1631 = OVER_RIDING_STYLED_ITEM('overriding color',(#1632),#119,#1598);
#1632 = PRESENTATION_STYLE_ASSIGNMENT((#1633));
#1633 = SURFACE_STYLE_USAGE(.BOTH.,#1634);
#1634 = SURFACE_SIDE_STYLE('',(#1635));
#1635 = SURFACE_STYLE_FILL_AREA(#1636);
#1636 = FILL_AREA_STYLE('',(#1637));
#1637 = FILL_AREA_STYLE_COLOUR('',#1616);
#1638 = OVER_RIDING_STYLED_ITEM('overriding color',(#1639),#308,#1598);
#1639 = PRESENTATION_STYLE_ASSIGNMENT((#1640));
#1640 = SURFACE_STYLE_USAGE(.BOTH.,#1641);
#1641 = SURFACE_SIDE_STYLE('',(#1642));
#1642 = SURFACE_STYLE_FILL_AREA(#1643);
#1643 = FILL_AREA_STYLE('',(#1644));
#1644 = FILL_AREA_STYLE_COLOUR('',#1616);
#1645 = OVER_RIDING_STYLED_ITEM('overriding color',(#1646),#427,#1598);
#1646 = PRESENTATION_STYLE_ASSIGNMENT((#1647));
#1647 = SURFACE_STYLE_USAGE(.BOTH.,#1648);
#1648 = SURFACE_SIDE_STYLE('',(#1649));
#1649 = SURFACE_STYLE_FILL_AREA(#1650);
#1650 = FILL_AREA_STYLE('',(#1651));
#1651 = FILL_AREA_STYLE_COLOUR('',#1616);
#1652 = OVER_RIDING_STYLED_ITEM('overriding color',(#1653),#439,#1598);
#1653 = PRESENTATION_STYLE_ASSIGNMENT((#1654));
#1654 = SURFACE_STYLE_USAGE(.BOTH.,#1655);
#1655 = SURFACE_SIDE_STYLE('',(#1656));
#1656 = SURFACE_STYLE_FILL_AREA(#1657);
#1657 = FILL_AREA_STYLE('',(#1658));
#1658 = FILL_AREA_STYLE_COLOUR('',#1659);
#1659 = COLOUR_RGB('',0.859000020776,0.737999965183,0.495999988746);
#1660 = OVER_RIDING_STYLED_ITEM('overriding color',(#1661),#470,#1598);
#1661 = PRESENTATION_STYLE_ASSIGNMENT((#1662));
#1662 = SURFACE_STYLE_USAGE(.BOTH.,#1663);
#1663 = SURFACE_SIDE_STYLE('',(#1664));
#1664 = SURFACE_STYLE_FILL_AREA(#1665);
#1665 = FILL_AREA_STYLE('',(#1666));
#1666 = FILL_AREA_STYLE_COLOUR('',#1659);
#1667 = OVER_RIDING_STYLED_ITEM('overriding color',(#1668),#495,#1598);
#1668 = PRESENTATION_STYLE_ASSIGNMENT((#1669));
#1669 = SURFACE_STYLE_USAGE(.BOTH.,#1670);
#1670 = SURFACE_SIDE_STYLE('',(#1671));
#1671 = SURFACE_STYLE_FILL_AREA(#1672);
#1672 = FILL_AREA_STYLE('',(#1673));
#1673 = FILL_AREA_STYLE_COLOUR('',#1659);
#1674 = OVER_RIDING_STYLED_ITEM('overriding color',(#1675),#519,#1598);
#1675 = PRESENTATION_STYLE_ASSIGNMENT((#1676));
#1676 = SURFACE_STYLE_USAGE(.BOTH.,#1677);
#1677 = SURFACE_SIDE_STYLE('',(#1678));
#1678 = SURFACE_STYLE_FILL_AREA(#1679);
#1679 = FILL_AREA_STYLE('',(#1680));
#1680 = FILL_AREA_STYLE_COLOUR('',#1659);
#1681 = OVER_RIDING_STYLED_ITEM('overriding color',(#1682),#543,#1598);
#1682 = PRESENTATION_STYLE_ASSIGNMENT((#1683));
#1683 = SURFACE_STYLE_USAGE(.BOTH.,#1684);
#1684 = SURFACE_SIDE_STYLE('',(#1685));
#1685 = SURFACE_STYLE_FILL_AREA(#1686);
#1686 = FILL_AREA_STYLE('',(#1687));
#1687 = FILL_AREA_STYLE_COLOUR('',#1659);
#1688 = OVER_RIDING_STYLED_ITEM('overriding color',(#1689),#560,#1598);
#1689 = PRESENTATION_STYLE_ASSIGNMENT((#1690));
#1690 = SURFACE_STYLE_USAGE(.BOTH.,#1691);
#1691 = SURFACE_SIDE_STYLE('',(#1692));
#1692 = SURFACE_STYLE_FILL_AREA(#1693);
#1693 = FILL_AREA_STYLE('',(#1694));
#1694 = FILL_AREA_STYLE_COLOUR('',#1659);
#1695 = OVER_RIDING_STYLED_ITEM('overriding color',(#1696),#591,#1598);
#1696 = PRESENTATION_STYLE_ASSIGNMENT((#1697));
#1697 = SURFACE_STYLE_USAGE(.BOTH.,#1698);
#1698 = SURFACE_SIDE_STYLE('',(#1699));
#1699 = SURFACE_STYLE_FILL_AREA(#1700);
#1700 = FILL_AREA_STYLE('',(#1701));
#1701 = FILL_AREA_STYLE_COLOUR('',#1659);
#1702 = OVER_RIDING_STYLED_ITEM('overriding color',(#1703),#616,#1598);
#1703 = PRESENTATION_STYLE_ASSIGNMENT((#1704));
#1704 = SURFACE_STYLE_USAGE(.BOTH.,#1705);
#1705 = SURFACE_SIDE_STYLE('',(#1706));
#1706 = SURFACE_STYLE_FILL_AREA(#1707);
#1707 = FILL_AREA_STYLE('',(#1708));
#1708 = FILL_AREA_STYLE_COLOUR('',#1659);
#1709 = OVER_RIDING_STYLED_ITEM('overriding color',(#1710),#640,#1598);
#1710 = PRESENTATION_STYLE_ASSIGNMENT((#1711));
#1711 = SURFACE_STYLE_USAGE(.BOTH.,#1712);
#1712 = SURFACE_SIDE_STYLE('',(#1713));
#1713 = SURFACE_STYLE_FILL_AREA(#1714);
#1714 = FILL_AREA_STYLE('',(#1715));
#1715 = FILL_AREA_STYLE_COLOUR('',#1659);
#1716 = OVER_RIDING_STYLED_ITEM('overriding color',(#1717),#664,#1598);
#1717 = PRESENTATION_STYLE_ASSIGNMENT((#1718));
#1718 = SURFACE_STYLE_USAGE(.BOTH.,#1719);
#1719 = SURFACE_SIDE_STYLE('',(#1720));
#1720 = SURFACE_STYLE_FILL_AREA(#1721);
#1721 = FILL_AREA_STYLE('',(#1722));
#1722 = FILL_AREA_STYLE_COLOUR('',#1659);
#1723 = OVER_RIDING_STYLED_ITEM('overriding color',(#1724),#681,#1598);
#1724 = PRESENTATION_STYLE_ASSIGNMENT((#1725));
#1725 = SURFACE_STYLE_USAGE(.BOTH.,#1726);
#1726 = SURFACE_SIDE_STYLE('',(#1727));
#1727 = SURFACE_STYLE_FILL_AREA(#1728);
#1728 = FILL_AREA_STYLE('',(#1729));
#1729 = FILL_AREA_STYLE_COLOUR('',#1659);
#1730 = OVER_RIDING_STYLED_ITEM('overriding color',(#1731),#712,#1598);
#1731 = PRESENTATION_STYLE_ASSIGNMENT((#1732));
#1732 = SURFACE_STYLE_USAGE(.BOTH.,#1733);
#1733 = SURFACE_SIDE_STYLE('',(#1734));
#1734 = SURFACE_STYLE_FILL_AREA(#1735);
#1735 = FILL_AREA_STYLE('',(#1736));
#1736 = FILL_AREA_STYLE_COLOUR('',#1659);
#1737 = OVER_RIDING_STYLED_ITEM('overriding color',(#1738),#737,#1598);
#1738 = PRESENTATION_STYLE_ASSIGNMENT((#1739));
#1739 = SURFACE_STYLE_USAGE(.BOTH.,#1740);
#1740 = SURFACE_SIDE_STYLE('',(#1741));
#1741 = SURFACE_STYLE_FILL_AREA(#1742);
#1742 = FILL_AREA_STYLE('',(#1743));
#1743 = FILL_AREA_STYLE_COLOUR('',#1659);
#1744 = OVER_RIDING_STYLED_ITEM('overriding color',(#1745),#761,#1598);
#1745 = PRESENTATION_STYLE_ASSIGNMENT((#1746));
#1746 = SURFACE_STYLE_USAGE(.BOTH.,#1747);
#1747 = SURFACE_SIDE_STYLE('',(#1748));
#1748 = SURFACE_STYLE_FILL_AREA(#1749);
#1749 = FILL_AREA_STYLE('',(#1750));
#1750 = FILL_AREA_STYLE_COLOUR('',#1659);
#1751 = OVER_RIDING_STYLED_ITEM('overriding color',(#1752),#785,#1598);
#1752 = PRESENTATION_STYLE_ASSIGNMENT((#1753));
#1753 = SURFACE_STYLE_USAGE(.BOTH.,#1754);
#1754 = SURFACE_SIDE_STYLE('',(#1755));
#1755 = SURFACE_STYLE_FILL_AREA(#1756);
#1756 = FILL_AREA_STYLE('',(#1757));
#1757 = FILL_AREA_STYLE_COLOUR('',#1659);
#1758 = OVER_RIDING_STYLED_ITEM('overriding color',(#1759),#802,#1598);
#1759 = PRESENTATION_STYLE_ASSIGNMENT((#1760));
#1760 = SURFACE_STYLE_USAGE(.BOTH.,#1761);
#1761 = SURFACE_SIDE_STYLE('',(#1762));
#1762 = SURFACE_STYLE_FILL_AREA(#1763);
#1763 = FILL_AREA_STYLE('',(#1764));
#1764 = FILL_AREA_STYLE_COLOUR('',#1659);
#1765 = OVER_RIDING_STYLED_ITEM('overriding color',(#1766),#833,#1598);
#1766 = PRESENTATION_STYLE_ASSIGNMENT((#1767));
#1767 = SURFACE_STYLE_USAGE(.BOTH.,#1768);
#1768 = SURFACE_SIDE_STYLE('',(#1769));
#1769 = SURFACE_STYLE_FILL_AREA(#1770);
#1770 = FILL_AREA_STYLE('',(#1771));
#1771 = FILL_AREA_STYLE_COLOUR('',#1659);
#1772 = OVER_RIDING_STYLED_ITEM('overriding color',(#1773),#858,#1598);
#1773 = PRESENTATION_STYLE_ASSIGNMENT((#1774));
#1774 = SURFACE_STYLE_USAGE(.BOTH.,#1775);
#1775 = SURFACE_SIDE_STYLE('',(#1776));
#1776 = SURFACE_STYLE_FILL_AREA(#1777);
#1777 = FILL_AREA_STYLE('',(#1778));
#1778 = FILL_AREA_STYLE_COLOUR('',#1659);
#1779 = OVER_RIDING_STYLED_ITEM('overriding color',(#1780),#882,#1598);
#1780 = PRESENTATION_STYLE_ASSIGNMENT((#1781));
#1781 = SURFACE_STYLE_USAGE(.BOTH.,#1782);
#1782 = SURFACE_SIDE_STYLE('',(#1783));
#1783 = SURFACE_STYLE_FILL_AREA(#1784);
#1784 = FILL_AREA_STYLE('',(#1785));
#1785 = FILL_AREA_STYLE_COLOUR('',#1659);
#1786 = OVER_RIDING_STYLED_ITEM('overriding color',(#1787),#906,#1598);
#1787 = PRESENTATION_STYLE_ASSIGNMENT((#1788));
#1788 = SURFACE_STYLE_USAGE(.BOTH.,#1789);
#1789 = SURFACE_SIDE_STYLE('',(#1790));
#1790 = SURFACE_STYLE_FILL_AREA(#1791);
#1791 = FILL_AREA_STYLE('',(#1792));
#1792 = FILL_AREA_STYLE_COLOUR('',#1659);
#1793 = OVER_RIDING_STYLED_ITEM('overriding color',(#1794),#923,#1598);
#1794 = PRESENTATION_STYLE_ASSIGNMENT((#1795));
#1795 = SURFACE_STYLE_USAGE(.BOTH.,#1796);
#1796 = SURFACE_SIDE_STYLE('',(#1797,#1801));
#1797 = SURFACE_STYLE_FILL_AREA(#1798);
#1798 = FILL_AREA_STYLE('',(#1799));
#1799 = FILL_AREA_STYLE_COLOUR('',#1800);
#1800 = COLOUR_RGB('',0.699999984889,9.999999991362E-02,
  5.000000142576E-02);
#1801 = SURFACE_STYLE_RENDERING_WITH_PROPERTIES(.NORMAL_SHADING.,#1800,(
    #1802));
#1802 = SURFACE_STYLE_TRANSPARENT(0.149999976158);
#1803 = OVER_RIDING_STYLED_ITEM('overriding color',(#1804),#954,#1598);
#1804 = PRESENTATION_STYLE_ASSIGNMENT((#1805));
#1805 = SURFACE_STYLE_USAGE(.BOTH.,#1806);
#1806 = SURFACE_SIDE_STYLE('',(#1807,#1810));
#1807 = SURFACE_STYLE_FILL_AREA(#1808);
#1808 = FILL_AREA_STYLE('',(#1809));
#1809 = FILL_AREA_STYLE_COLOUR('',#1800);
#1810 = SURFACE_STYLE_RENDERING_WITH_PROPERTIES(.NORMAL_SHADING.,#1800,(
    #1811));
#1811 = SURFACE_STYLE_TRANSPARENT(0.149999976158);
#1812 = OVER_RIDING_STYLED_ITEM('overriding color',(#1813),#978,#1598);
#1813 = PRESENTATION_STYLE_ASSIGNMENT((#1814));
#1814 = SURFACE_STYLE_USAGE(.BOTH.,#1815);
#1815 = SURFACE_SIDE_STYLE('',(#1816,#1819));
#1816 = SURFACE_STYLE_FILL_AREA(#1817);
#1817 = FILL_AREA_STYLE('',(#1818));
#1818 = FILL_AREA_STYLE_COLOUR('',#1800);
#1819 = SURFACE_STYLE_RENDERING_WITH_PROPERTIES(.NORMAL_SHADING.,#1800,(
    #1820));
#1820 = SURFACE_STYLE_TRANSPARENT(0.149999976158);
#1821 = OVER_RIDING_STYLED_ITEM('overriding color',(#1822),#1002,#1598);
#1822 = PRESENTATION_STYLE_ASSIGNMENT((#1823));
#1823 = SURFACE_STYLE_USAGE(.BOTH.,#1824);
#1824 = SURFACE_SIDE_STYLE('',(#1825,#1828));
#1825 = SURFACE_STYLE_FILL_AREA(#1826);
#1826 = FILL_AREA_STYLE('',(#1827));
#1827 = FILL_AREA_STYLE_COLOUR('',#1800);
#1828 = SURFACE_STYLE_RENDERING_WITH_PROPERTIES(.NORMAL_SHADING.,#1800,(
    #1829));
#1829 = SURFACE_STYLE_TRANSPARENT(0.149999976158);
#1830 = OVER_RIDING_STYLED_ITEM('overriding color',(#1831),#1019,#1598);
#1831 = PRESENTATION_STYLE_ASSIGNMENT((#1832));
#1832 = SURFACE_STYLE_USAGE(.BOTH.,#1833);
#1833 = SURFACE_SIDE_STYLE('',(#1834,#1838));
#1834 = SURFACE_STYLE_FILL_AREA(#1835);
#1835 = FILL_AREA_STYLE('',(#1836));
#1836 = FILL_AREA_STYLE_COLOUR('',#1837);
#1837 = COLOUR_RGB('',0.399999997426,0.699999984889,0.150000005922);
#1838 = SURFACE_STYLE_RENDERING_WITH_PROPERTIES(.NORMAL_SHADING.,#1837,(
    #1839));
#1839 = SURFACE_STYLE_TRANSPARENT(0.149999976158);
#1840 = OVER_RIDING_STYLED_ITEM('overriding color',(#1841),#1050,#1598);
#1841 = PRESENTATION_STYLE_ASSIGNMENT((#1842));
#1842 = SURFACE_STYLE_USAGE(.BOTH.,#1843);
#1843 = SURFACE_SIDE_STYLE('',(#1844,#1847));
#1844 = SURFACE_STYLE_FILL_AREA(#1845);
#1845 = FILL_AREA_STYLE('',(#1846));
#1846 = FILL_AREA_STYLE_COLOUR('',#1837);
#1847 = SURFACE_STYLE_RENDERING_WITH_PROPERTIES(.NORMAL_SHADING.,#1837,(
    #1848));
#1848 = SURFACE_STYLE_TRANSPARENT(0.149999976158);
#1849 = OVER_RIDING_STYLED_ITEM('overriding color',(#1850),#1074,#1598);
#1850 = PRESENTATION_STYLE_ASSIGNMENT((#1851));
#1851 = SURFACE_STYLE_USAGE(.BOTH.,#1852);
#1852 = SURFACE_SIDE_STYLE('',(#1853,#1856));
#1853 = SURFACE_STYLE_FILL_AREA(#1854);
#1854 = FILL_AREA_STYLE('',(#1855));
#1855 = FILL_AREA_STYLE_COLOUR('',#1837);
#1856 = SURFACE_STYLE_RENDERING_WITH_PROPERTIES(.NORMAL_SHADING.,#1837,(
    #1857));
#1857 = SURFACE_STYLE_TRANSPARENT(0.149999976158);
#1858 = OVER_RIDING_STYLED_ITEM('overriding color',(#1859),#1098,#1598);
#1859 = PRESENTATION_STYLE_ASSIGNMENT((#1860));
#1860 = SURFACE_STYLE_USAGE(.BOTH.,#1861);
#1861 = SURFACE_SIDE_STYLE('',(#1862,#1865));
#1862 = SURFACE_STYLE_FILL_AREA(#1863);
#1863 = FILL_AREA_STYLE('',(#1864));
#1864 = FILL_AREA_STYLE_COLOUR('',#1837);
#1865 = SURFACE_STYLE_RENDERING_WITH_PROPERTIES(.NORMAL_SHADING.,#1837,(
    #1866));
#1866 = SURFACE_STYLE_TRANSPARENT(0.149999976158);
#1867 = OVER_RIDING_STYLED_ITEM('overriding color',(#1868),#1115,#1598);
#1868 = PRESENTATION_STYLE_ASSIGNMENT((#1869));
#1869 = SURFACE_STYLE_USAGE(.BOTH.,#1870);
#1870 = SURFACE_SIDE_STYLE('',(#1871,#1875));
#1871 = SURFACE_STYLE_FILL_AREA(#1872);
#1872 = FILL_AREA_STYLE('',(#1873));
#1873 = FILL_AREA_STYLE_COLOUR('',#1874);
#1874 = COLOUR_RGB('',9.999999991362E-02,0.250000000672,0.699999984889);
#1875 = SURFACE_STYLE_RENDERING_WITH_PROPERTIES(.NORMAL_SHADING.,#1874,(
    #1876));
#1876 = SURFACE_STYLE_TRANSPARENT(0.149999976158);
#1877 = OVER_RIDING_STYLED_ITEM('overriding color',(#1878),#1146,#1598);
#1878 = PRESENTATION_STYLE_ASSIGNMENT((#1879));
#1879 = SURFACE_STYLE_USAGE(.BOTH.,#1880);
#1880 = SURFACE_SIDE_STYLE('',(#1881,#1884));
#1881 = SURFACE_STYLE_FILL_AREA(#1882);
#1882 = FILL_AREA_STYLE('',(#1883));
#1883 = FILL_AREA_STYLE_COLOUR('',#1874);
#1884 = SURFACE_STYLE_RENDERING_WITH_PROPERTIES(.NORMAL_SHADING.,#1874,(
    #1885));
#1885 = SURFACE_STYLE_TRANSPARENT(0.149999976158);
#1886 = OVER_RIDING_STYLED_ITEM('overriding color',(#1887),#1170,#1598);
#1887 = PRESENTATION_STYLE_ASSIGNMENT((#1888));
#1888 = SURFACE_STYLE_USAGE(.BOTH.,#1889);
#1889 = SURFACE_SIDE_STYLE('',(#1890,#1893));
#1890 = SURFACE_STYLE_FILL_AREA(#1891);
#1891 = FILL_AREA_STYLE('',(#1892));
#1892 = FILL_AREA_STYLE_COLOUR('',#1874);
#1893 = SURFACE_STYLE_RENDERING_WITH_PROPERTIES(.NORMAL_SHADING.,#1874,(
    #1894));
#1894 = SURFACE_STYLE_TRANSPARENT(0.149999976158);
#1895 = OVER_RIDING_STYLED_ITEM('overriding color',(#1896),#1194,#1598);
#1896 = PRESENTATION_STYLE_ASSIGNMENT((#1897));
#1897 = SURFACE_STYLE_USAGE(.BOTH.,#1898);
#1898 = SURFACE_SIDE_STYLE('',(#1899,#1902));
#1899 = SURFACE_STYLE_FILL_AREA(#1900);
#1900 = FILL_AREA_STYLE('',(#1901));
#1901 = FILL_AREA_STYLE_COLOUR('',#1874);
#1902 = SURFACE_STYLE_RENDERING_WITH_PROPERTIES(.NORMAL_SHADING.,#1874,(
    #1903));
#1903 = SURFACE_STYLE_TRANSPARENT(0.149999976158);
#1904 = OVER_RIDING_STYLED_ITEM('overriding color',(#1905),#1211,#1598);
#1905 = PRESENTATION_STYLE_ASSIGNMENT((#1906));
#1906 = SURFACE_STYLE_USAGE(.BOTH.,#1907);
#1907 = SURFACE_SIDE_STYLE('',(#1908));
#1908 = SURFACE_STYLE_FILL_AREA(#1909);
#1909 = FILL_AREA_STYLE('',(#1910));
#1910 = FILL_AREA_STYLE_COLOUR('',#1659);
#1911 = OVER_RIDING_STYLED_ITEM('overriding color',(#1912),#1224,#1598);
#1912 = PRESENTATION_STYLE_ASSIGNMENT((#1913));
#1913 = SURFACE_STYLE_USAGE(.BOTH.,#1914);
#1914 = SURFACE_SIDE_STYLE('',(#1915));
#1915 = SURFACE_STYLE_FILL_AREA(#1916);
#1916 = FILL_AREA_STYLE('',(#1917));
#1917 = FILL_AREA_STYLE_COLOUR('',#1659);
#1918 = OVER_RIDING_STYLED_ITEM('overriding color',(#1919),#1237,#1598);
#1919 = PRESENTATION_STYLE_ASSIGNMENT((#1920));
#1920 = SURFACE_STYLE_USAGE(.BOTH.,#1921);
#1921 = SURFACE_SIDE_STYLE('',(#1922));
#1922 = SURFACE_STYLE_FILL_AREA(#1923);
#1923 = FILL_AREA_STYLE('',(#1924));
#1924 = FILL_AREA_STYLE_COLOUR('',#1659);
#1925 = OVER_RIDING_STYLED_ITEM('overriding color',(#1926),#1250,#1598);
#1926 = PRESENTATION_STYLE_ASSIGNMENT((#1927));
#1927 = SURFACE_STYLE_USAGE(.BOTH.,#1928);
#1928 = SURFACE_SIDE_STYLE('',(#1929));
#1929 = SURFACE_STYLE_FILL_AREA(#1930);
#1930 = FILL_AREA_STYLE('',(#1931));
#1931 = FILL_AREA_STYLE_COLOUR('',#1659);
#1932 = OVER_RIDING_STYLED_ITEM('overriding color',(#1933),#1263,#1598);
#1933 = PRESENTATION_STYLE_ASSIGNMENT((#1934));
#1934 = SURFACE_STYLE_USAGE(.BOTH.,#1935);
#1935 = SURFACE_SIDE_STYLE('',(#1936,#1939));
#1936 = SURFACE_STYLE_FILL_AREA(#1937);
#1937 = FILL_AREA_STYLE('',(#1938));
#1938 = FILL_AREA_STYLE_COLOUR('',#1800);
#1939 = SURFACE_STYLE_RENDERING_WITH_PROPERTIES(.NORMAL_SHADING.,#1800,(
    #1940));
#1940 = SURFACE_STYLE_TRANSPARENT(0.149999976158);
#1941 = OVER_RIDING_STYLED_ITEM('overriding color',(#1942),#1275,#1598);
#1942 = PRESENTATION_STYLE_ASSIGNMENT((#1943));
#1943 = SURFACE_STYLE_USAGE(.BOTH.,#1944);
#1944 = SURFACE_SIDE_STYLE('',(#1945,#1948));
#1945 = SURFACE_STYLE_FILL_AREA(#1946);
#1946 = FILL_AREA_STYLE('',(#1947));
#1947 = FILL_AREA_STYLE_COLOUR('',#1837);
#1948 = SURFACE_STYLE_RENDERING_WITH_PROPERTIES(.NORMAL_SHADING.,#1837,(
    #1949));
#1949 = SURFACE_STYLE_TRANSPARENT(0.149999976158);
#1950 = OVER_RIDING_STYLED_ITEM('overriding color',(#1951),#1287,#1598);
#1951 = PRESENTATION_STYLE_ASSIGNMENT((#1952));
#1952 = SURFACE_STYLE_USAGE(.BOTH.,#1953);
#1953 = SURFACE_SIDE_STYLE('',(#1954,#1957));
#1954 = SURFACE_STYLE_FILL_AREA(#1955);
#1955 = FILL_AREA_STYLE('',(#1956));
#1956 = FILL_AREA_STYLE_COLOUR('',#1874);
#1957 = SURFACE_STYLE_RENDERING_WITH_PROPERTIES(.NORMAL_SHADING.,#1874,(
    #1958));
#1958 = SURFACE_STYLE_TRANSPARENT(0.149999976158);
#1959 = STYLED_ITEM('color',(#1960),#1299);
#1960 = PRESENTATION_STYLE_ASSIGNMENT((#1961,#1966));
#1961 = SURFACE_STYLE_USAGE(.BOTH.,#1962);
#1962 = SURFACE_SIDE_STYLE('',(#1963));
#1963 = SURFACE_STYLE_FILL_AREA(#1964);
#1964 = FILL_AREA_STYLE('',(#1965));
#1965 = FILL_AREA_STYLE_COLOUR('',#1605);
#1966 = CURVE_STYLE('',#1967,POSITIVE_LENGTH_MEASURE(0.1),#1608);
#1967 = DRAUGHTING_PRE_DEFINED_CURVE_FONT('continuous');
#1968 = OVER_RIDING_STYLED_ITEM('overriding color',(#1969),#1301,#1959);
#1969 = PRESENTATION_STYLE_ASSIGNMENT((#1970));
#1970 = SURFACE_STYLE_USAGE(.BOTH.,#1971);
#1971 = SURFACE_SIDE_STYLE('',(#1972,#1976));
#1972 = SURFACE_STYLE_FILL_AREA(#1973);
#1973 = FILL_AREA_STYLE('',(#1974));
#1974 = FILL_AREA_STYLE_COLOUR('',#1975);
#1975 = COLOUR_RGB('',0.823529417451,0.819607860991,0.780392170416);
#1976 = SURFACE_STYLE_RENDERING_WITH_PROPERTIES(.NORMAL_SHADING.,#1975,(
    #1977));
#1977 = SURFACE_STYLE_TRANSPARENT(0.699999988079);
#1978 = OVER_RIDING_STYLED_ITEM('overriding color',(#1979),#1341,#1959);
#1979 = PRESENTATION_STYLE_ASSIGNMENT((#1980));
#1980 = SURFACE_STYLE_USAGE(.BOTH.,#1981);
#1981 = SURFACE_SIDE_STYLE('',(#1982,#1985));
#1982 = SURFACE_STYLE_FILL_AREA(#1983);
#1983 = FILL_AREA_STYLE('',(#1984));
#1984 = FILL_AREA_STYLE_COLOUR('',#1975);
#1985 = SURFACE_STYLE_RENDERING_WITH_PROPERTIES(.NORMAL_SHADING.,#1975,(
    #1986));
#1986 = SURFACE_STYLE_TRANSPARENT(0.699999988079);
#1987 = OVER_RIDING_STYLED_ITEM('overriding color',(#1988),#1372,#1959);
#1988 = PRESENTATION_STYLE_ASSIGNMENT((#1989));
#1989 = SURFACE_STYLE_USAGE(.BOTH.,#1990);
#1990 = SURFACE_SIDE_STYLE('',(#1991,#1994));
#1991 = SURFACE_STYLE_FILL_AREA(#1992);
#1992 = FILL_AREA_STYLE('',(#1993));
#1993 = FILL_AREA_STYLE_COLOUR('',#1975);
#1994 = SURFACE_STYLE_RENDERING_WITH_PROPERTIES(.NORMAL_SHADING.,#1975,(
    #1995));
#1995 = SURFACE_STYLE_TRANSPARENT(0.699999988079);
#1996 = OVER_RIDING_STYLED_ITEM('overriding color',(#1997),#1403,#1959);
#1997 = PRESENTATION_STYLE_ASSIGNMENT((#1998));
#1998 = SURFACE_STYLE_USAGE(.BOTH.,#1999);
#1999 = SURFACE_SIDE_STYLE('',(#2000,#2003));
#2000 = SURFACE_STYLE_FILL_AREA(#2001);
#2001 = FILL_AREA_STYLE('',(#2002));
#2002 = FILL_AREA_STYLE_COLOUR('',#1975);
#2003 = SURFACE_STYLE_RENDERING_WITH_PROPERTIES(.NORMAL_SHADING.,#1975,(
    #2004));
#2004 = SURFACE_STYLE_TRANSPARENT(0.699999988079);
#2005 = OVER_RIDING_STYLED_ITEM('overriding color',(#2006),#1454,#1959);
#2006 = PRESENTATION_STYLE_ASSIGNMENT((#2007));
#2007 = SURFACE_STYLE_USAGE(.BOTH.,#2008);
#2008 = SURFACE_SIDE_STYLE('',(#2009,#2012));
#2009 = SURFACE_STYLE_FILL_AREA(#2010);
#2010 = FILL_AREA_STYLE('',(#2011));
#2011 = FILL_AREA_STYLE_COLOUR('',#1975);
#2012 = SURFACE_STYLE_RENDERING_WITH_PROPERTIES(.NORMAL_SHADING.,#1975,(
    #2013));
#2013 = SURFACE_STYLE_TRANSPARENT(0.699999988079);
#2014 = OVER_RIDING_STYLED_ITEM('overriding color',(#2015),#1471,#1959);
#2015 = PRESENTATION_STYLE_ASSIGNMENT((#2016));
#2016 = SURFACE_STYLE_USAGE(.BOTH.,#2017);
#2017 = SURFACE_SIDE_STYLE('',(#2018,#2021));
#2018 = SURFACE_STYLE_FILL_AREA(#2019);
#2019 = FILL_AREA_STYLE('',(#2020));
#2020 = FILL_AREA_STYLE_COLOUR('',#1975);
#2021 = SURFACE_STYLE_RENDERING_WITH_PROPERTIES(.NORMAL_SHADING.,#1975,(
    #2022));
#2022 = SURFACE_STYLE_TRANSPARENT(0.699999988079);
#2023 = OVER_RIDING_STYLED_ITEM('overriding color',(#2024),#1483,#1959);
#2024 = PRESENTATION_STYLE_ASSIGNMENT((#2025));
#2025 = SURFACE_STYLE_USAGE(.BOTH.,#2026);
#2026 = SURFACE_SIDE_STYLE('',(#2027,#2030));
#2027 = SURFACE_STYLE_FILL_AREA(#2028);
#2028 = FILL_AREA_STYLE('',(#2029));
#2029 = FILL_AREA_STYLE_COLOUR('',#1975);
#2030 = SURFACE_STYLE_RENDERING_WITH_PROPERTIES(.NORMAL_SHADING.,#1975,(
    #2031));
#2031 = SURFACE_STYLE_TRANSPARENT(0.699999988079);
#2032 = OVER_RIDING_STYLED_ITEM('overriding color',(#2033),#1514,#1959);
#2033 = PRESENTATION_STYLE_ASSIGNMENT((#2034));
#2034 = SURFACE_STYLE_USAGE(.BOTH.,#2035);
#2035 = SURFACE_SIDE_STYLE('',(#2036,#2039));
#2036 = SURFACE_STYLE_FILL_AREA(#2037);
#2037 = FILL_AREA_STYLE('',(#2038));
#2038 = FILL_AREA_STYLE_COLOUR('',#1975);
#2039 = SURFACE_STYLE_RENDERING_WITH_PROPERTIES(.NORMAL_SHADING.,#1975,(
    #2040));
#2040 = SURFACE_STYLE_TRANSPARENT(0.699999988079);
#2041 = OVER_RIDING_STYLED_ITEM('overriding color',(#2042),#1538,#1959);
#2042 = PRESENTATION_STYLE_ASSIGNMENT((#2043));
#2043 = SURFACE_STYLE_USAGE(.BOTH.,#2044);
#2044 = SURFACE_SIDE_STYLE('',(#2045,#2048));
#2045 = SURFACE_STYLE_FILL_AREA(#2046);
#2046 = FILL_AREA_STYLE('',(#2047));
#2047 = FILL_AREA_STYLE_COLOUR('',#1975);
#2048 = SURFACE_STYLE_RENDERING_WITH_PROPERTIES(.NORMAL_SHADING.,#1975,(
    #2049));
#2049 = SURFACE_STYLE_TRANSPARENT(0.699999988079);
#2050 = OVER_RIDING_STYLED_ITEM('overriding color',(#2051),#1562,#1959);
#2051 = PRESENTATION_STYLE_ASSIGNMENT((#2052));
#2052 = SURFACE_STYLE_USAGE(.BOTH.,#2053);
#2053 = SURFACE_SIDE_STYLE('',(#2054,#2057));
#2054 = SURFACE_STYLE_FILL_AREA(#2055);
#2055 = FILL_AREA_STYLE('',(#2056));
#2056 = FILL_AREA_STYLE_COLOUR('',#1975);
#2057 = SURFACE_STYLE_RENDERING_WITH_PROPERTIES(.NORMAL_SHADING.,#1975,(
    #2058));
#2058 = SURFACE_STYLE_TRANSPARENT(0.699999988079);
#2059 = OVER_RIDING_STYLED_ITEM('overriding color',(#2060),#1579,#1959);
#2060 = PRESENTATION_STYLE_ASSIGNMENT((#2061));
#2061 = SURFACE_STYLE_USAGE(.BOTH.,#2062);
#2062 = SURFACE_SIDE_STYLE('',(#2063,#2066));
#2063 = SURFACE_STYLE_FILL_AREA(#2064);
#2064 = FILL_AREA_STYLE('',(#2065));
#2065 = FILL_AREA_STYLE_COLOUR('',#1975);
#2066 = SURFACE_STYLE_RENDERING_WITH_PROPERTIES(.NORMAL_SHADING.,#1975,(
    #2067));
#2067 = SURFACE_STYLE_TRANSPARENT(0.699999988079);
ENDSEC;
END-ISO-10303-21;
